%!PS-Adobe-3.0 EPSF-3.0
%%Creator: jlibeps 0.1, https://sourceforge.net/projects/jlibeps/
%%Title: UMLet Diagram
%%CreationDate: Mon Sep 25 17:19:20 CEST 2017
%%BoundingBox: 0 0 620 220
%%DocumentData: Clean7Bit
%%DocumentProcessColors: Black
%%ColorUsage: Color
%%Origin: 0 0
%%Pages: 1
%%Page: 1 1
%%EndComments

gsave
-0.0 220.0 translate
1.0 setlinewidth
10.0 setmiterlimit
0 setlinejoin
2 setlinecap
[ ] 0 setdash
gsave
newpath
0.0 -0.0 moveto
620.0 -0.0 lineto
620.0 -220.0 lineto
0.0 -220.0 lineto
0.0 -0.0 lineto
closepath
clip
newpath
1.0 1.0 1.0 setrgbcolor
newpath
0.0 -0.0 moveto
620.0 -0.0 lineto
620.0 -220.0 lineto
0.0 -220.0 lineto
0.0 -0.0 lineto
closepath
fill
newpath
0.0 0.0 0.0 setrgbcolor
grestore
gsave
newpath
0.0 -0.0 moveto
620.0 -0.0 lineto
620.0 -220.0 lineto
0.0 -220.0 lineto
0.0 -0.0 lineto
closepath
clip
newpath
1.0 setlinewidth
10.0 setmiterlimit
0 setlinejoin
2 setlinecap
[ ] 0 setdash
grestore
gsave
newpath
160.0 -50.0 moveto
160.0 -170.0 lineto
520.0 -170.0 lineto
520.0 -50.0 lineto
closepath
clip
newpath
0.0 0.0 0.0 setrgbcolor
1.0 1.0 1.0 setrgbcolor
newpath
160.5 -50.5 moveto
519.0 -50.5 lineto
519.0 -169.0 lineto
160.5 -169.0 lineto
160.5 -50.5 lineto
closepath
fill
newpath
0.0 0.0 0.0 setrgbcolor
1.0 setlinewidth
10.0 setmiterlimit
0 setlinejoin
2 setlinecap
[ ] 0 setdash
newpath
160.5 -50.5 moveto
519.0 -50.5 lineto
519.0 -169.0 lineto
160.5 -169.0 lineto
160.5 -50.5 lineto
closepath
stroke
newpath
0.0 0.0 0.0 setrgbcolor
grestore
gsave
newpath
0.0 -0.0 moveto
620.0 -0.0 lineto
620.0 -220.0 lineto
0.0 -220.0 lineto
0.0 -0.0 lineto
closepath
clip
newpath
1.0 setlinewidth
10.0 setmiterlimit
0 setlinejoin
2 setlinecap
[ ] 0 setdash
grestore
gsave
newpath
280.0 -50.0 moveto
280.0 -170.0 lineto
400.0 -170.0 lineto
400.0 -50.0 lineto
closepath
clip
newpath
0.0 0.0 0.0 setrgbcolor
1.0 1.0 1.0 setrgbcolor
newpath
280.5 -50.5 moveto
399.0 -50.5 lineto
399.0 -169.0 lineto
280.5 -169.0 lineto
280.5 -50.5 lineto
closepath
fill
newpath
0.0 0.0 0.0 setrgbcolor
1.0 setlinewidth
10.0 setmiterlimit
0 setlinejoin
2 setlinecap
[ ] 0 setdash
newpath
280.5 -50.5 moveto
399.0 -50.5 lineto
399.0 -169.0 lineto
280.5 -169.0 lineto
280.5 -50.5 lineto
closepath
stroke
newpath
0.0 0.0 0.0 setrgbcolor
newpath
300.98438 -99.015625 moveto
304.82812 -89.0 lineto
306.25 -89.0 lineto
310.35938 -99.015625 lineto
308.84375 -99.015625 lineto
307.67188 -95.984375 lineto
303.48438 -95.984375 lineto
302.39062 -99.015625 lineto
300.98438 -99.015625 lineto
closepath
303.875 -94.90625 moveto
307.26562 -94.90625 lineto
306.21875 -92.125 lineto
305.90625 -91.28125 305.67188 -90.58854 305.51562 -90.046875 curveto
305.39062 -90.69271 305.20834 -91.328125 304.96875 -91.953125 curveto
303.875 -94.90625 lineto
closepath
311.2754 -99.015625 moveto
311.2754 -89.0 lineto
312.49414 -89.0 lineto
312.49414 -94.703125 lineto
315.41602 -91.75 lineto
317.00977 -91.75 lineto
314.22852 -94.453125 lineto
317.29102 -99.015625 lineto
315.75977 -99.015625 lineto
313.36914 -95.296875 lineto
312.49414 -96.140625 lineto
312.49414 -99.015625 lineto
311.2754 -99.015625 lineto
closepath
320.94727 -97.921875 moveto
321.11914 -99.0 lineto
320.7754 -99.072914 320.4681 -99.109375 320.19727 -99.109375 curveto
319.74936 -99.109375 319.40298 -99.03906 319.1582 -98.89844 curveto
318.91342 -98.75781 318.74155 -98.572914 318.64258 -98.34375 curveto
318.5436 -98.114586 318.49414 -97.63021 318.49414 -96.890625 curveto
318.49414 -92.71875 lineto
317.5879 -92.71875 lineto
317.5879 -91.75 lineto
318.49414 -91.75 lineto
318.49414 -89.953125 lineto
319.7129 -89.21875 lineto
319.7129 -91.75 lineto
320.94727 -91.75 lineto
320.94727 -92.71875 lineto
319.7129 -92.71875 lineto
319.7129 -96.953125 lineto
319.7129 -97.30729 319.73373 -97.53385 319.7754 -97.63281 curveto
319.81705 -97.73177 319.88736 -97.8125 319.98633 -97.875 curveto
320.0853 -97.9375 320.2233 -97.96875 320.4004 -97.96875 curveto
320.54623 -97.96875 320.72852 -97.953125 320.94727 -97.921875 curveto
closepath
322.16504 -90.40625 moveto
322.16504 -89.0 lineto
323.3838 -89.0 lineto
323.3838 -90.40625 lineto
322.16504 -90.40625 lineto
closepath
322.16504 -99.015625 moveto
322.16504 -91.75 lineto
323.3838 -91.75 lineto
323.3838 -99.015625 lineto
322.16504 -99.015625 lineto
closepath
327.2754 -99.015625 moveto
324.50977 -91.75 lineto
325.82227 -91.75 lineto
327.36914 -96.109375 lineto
327.5358 -96.578125 327.69205 -97.0625 327.8379 -97.5625 curveto
327.95248 -97.177086 328.10352 -96.71875 328.29102 -96.1875 curveto
329.91602 -91.75 lineto
331.18164 -91.75 lineto
328.43164 -99.015625 lineto
327.2754 -99.015625 lineto
closepath
332.2754 -90.40625 moveto
332.2754 -89.0 lineto
333.49414 -89.0 lineto
333.49414 -90.40625 lineto
332.2754 -90.40625 lineto
closepath
332.2754 -99.015625 moveto
332.2754 -91.75 lineto
333.49414 -91.75 lineto
333.49414 -99.015625 lineto
332.2754 -99.015625 lineto
closepath
340.33887 -96.671875 moveto
341.62012 -96.828125 lineto
341.41177 -97.578125 341.03677 -98.15885 340.49512 -98.57031 curveto
339.95346 -98.98177 339.26074 -99.1875 338.417 -99.1875 curveto
337.3545 -99.1875 336.51334 -98.859375 335.89355 -98.203125 curveto
335.27377 -97.546875 334.96387 -96.63021 334.96387 -95.453125 curveto
334.96387 -94.22396 335.27896 -93.27344 335.90918 -92.60156 curveto
336.5394 -91.92969 337.3545 -91.59375 338.3545 -91.59375 curveto
339.32324 -91.59375 340.1149 -91.92448 340.7295 -92.58594 curveto
341.3441 -93.2474 341.65137 -94.177086 341.65137 -95.375 curveto
341.65137 -95.447914 341.65137 -95.55729 341.65137 -95.703125 curveto
336.2295 -95.703125 lineto
336.2816 -96.49479 336.50815 -97.104164 336.90918 -97.53125 curveto
337.3102 -97.958336 337.81802 -98.171875 338.43262 -98.171875 curveto
338.88052 -98.171875 339.26334 -98.052086 339.58105 -97.8125 curveto
339.89877 -97.572914 340.15137 -97.19271 340.33887 -96.671875 curveto
closepath
336.30762 -94.6875 moveto
340.3545 -94.6875 lineto
340.3024 -94.072914 340.14615 -93.614586 339.88574 -93.3125 curveto
339.50034 -92.84375 338.99512 -92.609375 338.37012 -92.609375 curveto
337.7972 -92.609375 337.32065 -92.796875 336.94043 -93.171875 curveto
336.5602 -93.546875 336.34927 -94.052086 336.30762 -94.6875 curveto
closepath
343.14062 -99.015625 moveto
343.14062 -91.75 lineto
344.25 -91.75 lineto
344.25 -92.859375 lineto
344.53125 -92.33854 344.79166 -91.9974 345.03125 -91.83594 curveto
345.27084 -91.67448 345.53647 -91.59375 345.82812 -91.59375 curveto
346.24478 -91.59375 346.66666 -91.72396 347.09375 -91.984375 curveto
346.67188 -93.125 lineto
346.36978 -92.947914 346.06772 -92.859375 345.76562 -92.859375 curveto
345.49478 -92.859375 345.2526 -92.9401 345.03906 -93.10156 curveto
344.82553 -93.26302 344.67188 -93.489586 344.57812 -93.78125 curveto
344.44272 -94.21875 344.375 -94.697914 344.375 -95.21875 curveto
344.375 -99.015625 lineto
343.14062 -99.015625 lineto
closepath
352.58398 -99.015625 moveto
352.58398 -97.953125 lineto
352.01108 -98.77604 351.24023 -99.1875 350.27148 -99.1875 curveto
349.8444 -99.1875 349.44595 -99.104164 349.07617 -98.9375 curveto
348.7064 -98.770836 348.43033 -98.5625 348.24805 -98.3125 curveto
348.06577 -98.0625 347.93814 -97.760414 347.86523 -97.40625 curveto
347.81314 -97.166664 347.7871 -96.78125 347.7871 -96.25 curveto
347.7871 -91.75 lineto
349.02148 -91.75 lineto
349.02148 -95.78125 lineto
349.02148 -96.427086 349.04752 -96.859375 349.0996 -97.078125 curveto
349.17252 -97.40104 349.33398 -97.65625 349.58398 -97.84375 curveto
349.83398 -98.03125 350.14648 -98.125 350.52148 -98.125 curveto
350.88608 -98.125 351.22983 -98.02865 351.55273 -97.83594 curveto
351.87564 -97.64323 352.10483 -97.385414 352.24023 -97.0625 curveto
352.37564 -96.739586 352.44336 -96.265625 352.44336 -95.640625 curveto
352.44336 -91.75 lineto
353.67773 -91.75 lineto
353.67773 -99.015625 lineto
352.58398 -99.015625 lineto
closepath
355.6045 -99.015625 moveto
355.6045 -91.75 lineto
356.71387 -91.75 lineto
356.71387 -92.78125 lineto
357.24512 -91.989586 358.01596 -91.59375 359.02637 -91.59375 curveto
359.46387 -91.59375 359.8649 -91.671875 360.2295 -91.828125 curveto
360.5941 -91.984375 360.86752 -92.1901 361.0498 -92.44531 curveto
361.2321 -92.70052 361.3597 -93.00521 361.43262 -93.359375 curveto
361.4847 -93.58854 361.51074 -93.984375 361.51074 -94.546875 curveto
361.51074 -99.015625 lineto
360.27637 -99.015625 lineto
360.27637 -94.59375 lineto
360.27637 -94.09375 360.2295 -93.72135 360.13574 -93.47656 curveto
360.042 -93.23177 359.8727 -93.03385 359.62793 -92.88281 curveto
359.38315 -92.73177 359.0941 -92.65625 358.76074 -92.65625 curveto
358.2399 -92.65625 357.7894 -92.822914 357.40918 -93.15625 curveto
357.02896 -93.489586 356.83887 -94.11979 356.83887 -95.046875 curveto
356.83887 -99.015625 lineto
355.6045 -99.015625 lineto
closepath
363.17188 -99.625 moveto
364.35938 -99.796875 lineto
364.41147 -100.16146 364.5521 -100.43229 364.78125 -100.609375 curveto
365.08334 -100.828125 365.5 -100.9375 366.03125 -100.9375 curveto
366.60416 -100.9375 367.04428 -100.82552 367.35156 -100.60156 curveto
367.65884 -100.3776 367.86978 -100.05729 367.98438 -99.640625 curveto
368.04688 -99.390625 368.0729 -98.864586 368.0625 -98.0625 curveto
367.53125 -98.697914 366.8646 -99.015625 366.0625 -99.015625 curveto
365.0625 -99.015625 364.28906 -98.65625 363.7422 -97.9375 curveto
363.1953 -97.21875 362.92188 -96.354164 362.92188 -95.34375 curveto
362.92188 -94.65625 363.04688 -94.01823 363.29688 -93.42969 curveto
363.54688 -92.84115 363.90884 -92.38802 364.3828 -92.07031 curveto
364.85678 -91.7526 365.41666 -91.59375 366.0625 -91.59375 curveto
366.91666 -91.59375 367.625 -91.9375 368.1875 -92.625 curveto
368.1875 -91.75 lineto
369.3125 -91.75 lineto
369.3125 -98.03125 lineto
369.3125 -99.166664 369.1979 -99.96875 368.96875 -100.4375 curveto
368.7396 -100.90625 368.375 -101.27865 367.875 -101.55469 curveto
367.375 -101.83073 366.7604 -101.96875 366.03125 -101.96875 curveto
365.16666 -101.96875 364.46875 -101.77344 363.9375 -101.38281 curveto
363.40625 -100.99219 363.15103 -100.40625 363.17188 -99.625 curveto
closepath
364.1875 -95.25 moveto
364.1875 -96.208336 364.375 -96.90625 364.75 -97.34375 curveto
365.125 -97.78125 365.59897 -98.0 366.17188 -98.0 curveto
366.73438 -98.0 367.20834 -97.78125 367.59375 -97.34375 curveto
367.97916 -96.90625 368.17188 -96.22396 368.17188 -95.296875 curveto
368.17188 -94.41146 367.97397 -93.74219 367.57812 -93.28906 curveto
367.18228 -92.83594 366.70834 -92.609375 366.15625 -92.609375 curveto
365.60416 -92.609375 365.13803 -92.83073 364.7578 -93.27344 curveto
364.3776 -93.71615 364.1875 -94.375 364.1875 -95.25 curveto
closepath
370.69238 -96.84375 moveto
371.8955 -96.65625 lineto
371.9684 -97.145836 372.16113 -97.520836 372.47363 -97.78125 curveto
372.78613 -98.041664 373.22363 -98.171875 373.78613 -98.171875 curveto
374.34863 -98.171875 374.7679 -98.05729 375.04395 -97.828125 curveto
375.31998 -97.59896 375.458 -97.328125 375.458 -97.015625 curveto
375.458 -96.734375 375.333 -96.515625 375.083 -96.359375 curveto
374.91635 -96.24479 374.49966 -96.104164 373.833 -95.9375 curveto
372.92676 -95.708336 372.29916 -95.510414 371.9502 -95.34375 curveto
371.60123 -95.177086 371.33823 -94.947914 371.16113 -94.65625 curveto
370.98404 -94.364586 370.8955 -94.041664 370.8955 -93.6875 curveto
370.8955 -93.364586 370.9684 -93.0651 371.11426 -92.78906 curveto
371.2601 -92.51302 371.46323 -92.28125 371.72363 -92.09375 curveto
371.91113 -91.958336 372.16895 -91.84115 372.49707 -91.74219 curveto
372.8252 -91.64323 373.18198 -91.59375 373.56738 -91.59375 curveto
374.12988 -91.59375 374.6273 -91.67448 375.05957 -91.83594 curveto
375.49185 -91.9974 375.81216 -92.21875 376.0205 -92.5 curveto
376.22885 -92.78125 376.36948 -93.15625 376.44238 -93.625 curveto
375.23926 -93.796875 lineto
375.18716 -93.421875 375.02832 -93.13021 374.7627 -92.921875 curveto
374.49707 -92.71354 374.12466 -92.609375 373.6455 -92.609375 curveto
373.083 -92.609375 372.68198 -92.70052 372.44238 -92.88281 curveto
372.2028 -93.0651 372.083 -93.28646 372.083 -93.546875 curveto
372.083 -93.703125 372.12988 -93.84375 372.22363 -93.96875 curveto
372.3278 -94.104164 372.48926 -94.21354 372.708 -94.296875 curveto
372.8226 -94.33854 373.18198 -94.44271 373.78613 -94.609375 curveto
374.66113 -94.84896 375.2705 -95.041664 375.61426 -95.1875 curveto
375.958 -95.333336 376.22623 -95.546875 376.41895 -95.828125 curveto
376.61166 -96.109375 376.708 -96.458336 376.708 -96.875 curveto
376.708 -97.291664 376.59082 -97.67969 376.35645 -98.03906 curveto
376.12207 -98.39844 375.77832 -98.67969 375.3252 -98.88281 curveto
374.87207 -99.08594 374.35904 -99.1875 373.78613 -99.1875 curveto
372.84863 -99.1875 372.13248 -98.989586 371.6377 -98.59375 curveto
371.1429 -98.197914 370.8278 -97.614586 370.69238 -96.84375 curveto
closepath
fill
newpath
0.0 0.0 0.0 setrgbcolor
newpath
314.15625 -114.984375 moveto
314.15625 -104.96875 lineto
320.90625 -104.96875 lineto
320.90625 -106.140625 lineto
315.46875 -106.140625 lineto
315.46875 -109.25 lineto
320.17188 -109.25 lineto
320.17188 -110.4375 lineto
315.46875 -110.4375 lineto
315.46875 -114.984375 lineto
314.15625 -114.984375 lineto
closepath
327.23926 -114.984375 moveto
327.23926 -113.921875 lineto
326.66635 -114.74479 325.8955 -115.15625 324.92676 -115.15625 curveto
324.49966 -115.15625 324.10123 -115.072914 323.73145 -114.90625 curveto
323.36166 -114.739586 323.0856 -114.53125 322.90332 -114.28125 curveto
322.72104 -114.03125 322.5934 -113.729164 322.5205 -113.375 curveto
322.4684 -113.135414 322.44238 -112.75 322.44238 -112.21875 curveto
322.44238 -107.71875 lineto
323.67676 -107.71875 lineto
323.67676 -111.75 lineto
323.67676 -112.395836 323.7028 -112.828125 323.75488 -113.046875 curveto
323.8278 -113.36979 323.98926 -113.625 324.23926 -113.8125 curveto
324.48926 -114.0 324.80176 -114.09375 325.17676 -114.09375 curveto
325.54135 -114.09375 325.8851 -113.9974 326.208 -113.80469 curveto
326.5309 -113.61198 326.7601 -113.354164 326.8955 -113.03125 curveto
327.0309 -112.708336 327.09863 -112.234375 327.09863 -111.609375 curveto
327.09863 -107.71875 lineto
328.333 -107.71875 lineto
328.333 -114.984375 lineto
327.23926 -114.984375 lineto
closepath
330.25977 -114.984375 moveto
330.25977 -107.71875 lineto
331.36914 -107.71875 lineto
331.36914 -108.75 lineto
331.9004 -107.958336 332.67123 -107.5625 333.68164 -107.5625 curveto
334.11914 -107.5625 334.52017 -107.640625 334.88477 -107.796875 curveto
335.24936 -107.953125 335.5228 -108.15885 335.70508 -108.41406 curveto
335.88736 -108.66927 336.01498 -108.97396 336.0879 -109.328125 curveto
336.13998 -109.55729 336.16602 -109.953125 336.16602 -110.515625 curveto
336.16602 -114.984375 lineto
334.93164 -114.984375 lineto
334.93164 -110.5625 lineto
334.93164 -110.0625 334.88477 -109.6901 334.79102 -109.44531 curveto
334.69727 -109.20052 334.52798 -109.0026 334.2832 -108.85156 curveto
334.03842 -108.70052 333.74936 -108.625 333.41602 -108.625 curveto
332.89517 -108.625 332.44467 -108.791664 332.06445 -109.125 curveto
331.68423 -109.458336 331.49414 -110.08854 331.49414 -111.015625 curveto
331.49414 -114.984375 lineto
330.25977 -114.984375 lineto
closepath
338.06152 -114.984375 moveto
338.06152 -104.96875 lineto
339.28027 -104.96875 lineto
339.28027 -110.671875 lineto
342.20215 -107.71875 lineto
343.7959 -107.71875 lineto
341.01465 -110.421875 lineto
344.07715 -114.984375 lineto
342.5459 -114.984375 lineto
340.15527 -111.265625 lineto
339.28027 -112.109375 lineto
339.28027 -114.984375 lineto
338.06152 -114.984375 lineto
closepath
347.7334 -113.890625 moveto
347.90527 -114.96875 lineto
347.56152 -115.041664 347.25424 -115.078125 346.9834 -115.078125 curveto
346.5355 -115.078125 346.18912 -115.00781 345.94434 -114.86719 curveto
345.69955 -114.72656 345.52768 -114.541664 345.4287 -114.3125 curveto
345.32974 -114.083336 345.28027 -113.59896 345.28027 -112.859375 curveto
345.28027 -108.6875 lineto
344.37402 -108.6875 lineto
344.37402 -107.71875 lineto
345.28027 -107.71875 lineto
345.28027 -105.921875 lineto
346.49902 -105.1875 lineto
346.49902 -107.71875 lineto
347.7334 -107.71875 lineto
347.7334 -108.6875 lineto
346.49902 -108.6875 lineto
346.49902 -112.921875 lineto
346.49902 -113.27604 346.51987 -113.5026 346.56152 -113.60156 curveto
346.60318 -113.70052 346.6735 -113.78125 346.77246 -113.84375 curveto
346.87143 -113.90625 347.00943 -113.9375 347.18652 -113.9375 curveto
347.33237 -113.9375 347.51465 -113.921875 347.7334 -113.890625 curveto
closepath
348.95117 -106.375 moveto
348.95117 -104.96875 lineto
350.16992 -104.96875 lineto
350.16992 -106.375 lineto
348.95117 -106.375 lineto
closepath
348.95117 -114.984375 moveto
348.95117 -107.71875 lineto
350.16992 -107.71875 lineto
350.16992 -114.984375 lineto
348.95117 -114.984375 lineto
closepath
351.59277 -111.359375 moveto
351.59277 -110.015625 351.96777 -109.015625 352.71777 -108.359375 curveto
353.33237 -107.828125 354.09277 -107.5625 354.99902 -107.5625 curveto
355.98862 -107.5625 356.80112 -107.88802 357.43652 -108.53906 curveto
358.07193 -109.1901 358.38965 -110.09375 358.38965 -111.25 curveto
358.38965 -112.1875 358.24902 -112.92448 357.96777 -113.46094 curveto
357.68652 -113.9974 357.27768 -114.41406 356.7412 -114.71094 curveto
356.20474 -115.00781 355.62402 -115.15625 354.99902 -115.15625 curveto
353.97818 -115.15625 353.15527 -114.828125 352.53027 -114.171875 curveto
351.90527 -113.515625 351.59277 -112.578125 351.59277 -111.359375 curveto
closepath
352.8584 -111.359375 moveto
352.8584 -112.28646 353.06152 -112.98177 353.46777 -113.44531 curveto
353.87402 -113.90885 354.38443 -114.140625 354.99902 -114.140625 curveto
355.60318 -114.140625 356.1084 -113.90625 356.51465 -113.4375 curveto
356.9209 -112.96875 357.12402 -112.260414 357.12402 -111.3125 curveto
357.12402 -110.416664 356.9209 -109.73698 356.51465 -109.27344 curveto
356.1084 -108.8099 355.60318 -108.578125 354.99902 -108.578125 curveto
354.38443 -108.578125 353.87402 -108.80729 353.46777 -109.265625 curveto
353.06152 -109.72396 352.8584 -110.421875 352.8584 -111.359375 curveto
closepath
359.83203 -114.984375 moveto
359.83203 -107.71875 lineto
360.9414 -107.71875 lineto
360.9414 -108.75 lineto
361.47266 -107.958336 362.2435 -107.5625 363.2539 -107.5625 curveto
363.6914 -107.5625 364.09244 -107.640625 364.45703 -107.796875 curveto
364.82162 -107.953125 365.09506 -108.15885 365.27734 -108.41406 curveto
365.45963 -108.66927 365.58725 -108.97396 365.66016 -109.328125 curveto
365.71225 -109.55729 365.73828 -109.953125 365.73828 -110.515625 curveto
365.73828 -114.984375 lineto
364.5039 -114.984375 lineto
364.5039 -110.5625 lineto
364.5039 -110.0625 364.45703 -109.6901 364.36328 -109.44531 curveto
364.26953 -109.20052 364.10025 -109.0026 363.85547 -108.85156 curveto
363.6107 -108.70052 363.32162 -108.625 362.98828 -108.625 curveto
362.46744 -108.625 362.01694 -108.791664 361.63672 -109.125 curveto
361.2565 -109.458336 361.0664 -110.08854 361.0664 -111.015625 curveto
361.0664 -114.984375 lineto
359.83203 -114.984375 lineto
closepath
fill
newpath
0.0 0.0 0.0 setrgbcolor
newpath
327.70312 -131.5625 moveto
328.89062 -131.73438 lineto
328.94272 -132.09895 329.08334 -132.3698 329.3125 -132.54688 curveto
329.6146 -132.76562 330.03125 -132.875 330.5625 -132.875 curveto
331.1354 -132.875 331.57553 -132.76302 331.8828 -132.53906 curveto
332.1901 -132.31511 332.40103 -131.9948 332.51562 -131.57812 curveto
332.57812 -131.32812 332.60416 -130.80208 332.59375 -130.0 curveto
332.0625 -130.63542 331.39584 -130.95312 330.59375 -130.95312 curveto
329.59375 -130.95312 328.8203 -130.59375 328.27344 -129.875 curveto
327.72656 -129.15625 327.45312 -128.29167 327.45312 -127.28125 curveto
327.45312 -126.59375 327.57812 -125.95573 327.82812 -125.36719 curveto
328.07812 -124.77865 328.4401 -124.32552 328.91406 -124.00781 curveto
329.38803 -123.6901 329.9479 -123.53125 330.59375 -123.53125 curveto
331.4479 -123.53125 332.15625 -123.875 332.71875 -124.5625 curveto
332.71875 -123.6875 lineto
333.84375 -123.6875 lineto
333.84375 -129.96875 lineto
333.84375 -131.10417 333.72916 -131.90625 333.5 -132.375 curveto
333.27084 -132.84375 332.90625 -133.21614 332.40625 -133.49219 curveto
331.90625 -133.76823 331.29166 -133.90625 330.5625 -133.90625 curveto
329.6979 -133.90625 329.0 -133.71094 328.46875 -133.32031 curveto
327.9375 -132.92969 327.68228 -132.34375 327.70312 -131.5625 curveto
closepath
328.71875 -127.1875 moveto
328.71875 -128.14583 328.90625 -128.84375 329.28125 -129.28125 curveto
329.65625 -129.71875 330.13022 -129.9375 330.70312 -129.9375 curveto
331.26562 -129.9375 331.7396 -129.71875 332.125 -129.28125 curveto
332.5104 -128.84375 332.70312 -128.16145 332.70312 -127.234375 curveto
332.70312 -126.34896 332.50522 -125.67969 332.10938 -125.22656 curveto
331.71353 -124.77344 331.2396 -124.546875 330.6875 -124.546875 curveto
330.1354 -124.546875 329.66928 -124.76823 329.28906 -125.21094 curveto
328.90884 -125.65365 328.71875 -126.3125 328.71875 -127.1875 curveto
closepath
338.06738 -133.90625 moveto
337.37988 -133.04167 336.80176 -132.03645 336.333 -130.89062 curveto
335.86426 -129.7448 335.62988 -128.5573 335.62988 -127.328125 curveto
335.62988 -126.24479 335.80698 -125.203125 336.16113 -124.203125 curveto
336.56738 -123.046875 337.2028 -121.90104 338.06738 -120.765625 curveto
338.94238 -120.765625 lineto
338.3903 -121.71354 338.02573 -122.390625 337.84863 -122.796875 curveto
337.56738 -123.421875 337.34863 -124.078125 337.19238 -124.765625 curveto
336.99448 -125.609375 336.8955 -126.46354 336.8955 -127.328125 curveto
336.8955 -129.52605 337.5778 -131.71875 338.94238 -133.90625 curveto
338.06738 -133.90625 lineto
closepath
339.55762 -130.95312 moveto
342.19824 -127.171875 lineto
339.74512 -123.6875 lineto
341.292 -123.6875 lineto
342.40137 -125.390625 lineto
342.6097 -125.71354 342.77637 -125.984375 342.90137 -126.203125 curveto
343.1097 -125.90104 343.2972 -125.635414 343.46387 -125.40625 curveto
344.68262 -123.6875 lineto
346.15137 -123.6875 lineto
343.65137 -127.109375 lineto
346.33887 -130.95312 lineto
344.83887 -130.95312 lineto
343.33887 -128.70312 lineto
342.94824 -128.09375 lineto
341.042 -130.95312 lineto
339.55762 -130.95312 lineto
closepath
348.18262 -133.90625 moveto
347.292 -133.90625 lineto
348.6566 -131.71875 349.33887 -129.52605 349.33887 -127.328125 curveto
349.33887 -126.47396 349.2399 -125.625 349.042 -124.78125 curveto
348.88574 -124.09375 348.6722 -123.4375 348.40137 -122.8125 curveto
348.22427 -122.40625 347.8545 -121.72396 347.292 -120.765625 curveto
348.18262 -120.765625 lineto
349.03677 -121.90104 349.667 -123.046875 350.07324 -124.203125 curveto
350.4274 -125.203125 350.6045 -126.24479 350.6045 -127.328125 curveto
350.6045 -128.5573 350.36752 -129.7448 349.89355 -130.89062 curveto
349.4196 -132.03645 348.84927 -133.04167 348.18262 -133.90625 curveto
closepath
fill
newpath
grestore
gsave
newpath
0.0 -0.0 moveto
620.0 -0.0 lineto
620.0 -220.0 lineto
0.0 -220.0 lineto
0.0 -0.0 lineto
closepath
clip
newpath
1.0 setlinewidth
10.0 setmiterlimit
0 setlinejoin
2 setlinecap
[ ] 0 setdash
grestore
gsave
newpath
160.0 -50.0 moveto
160.0 -170.0 lineto
280.0 -170.0 lineto
280.0 -50.0 lineto
closepath
clip
newpath
0.0 0.0 0.0 setrgbcolor
1.0 1.0 1.0 setrgbcolor
newpath
160.5 -50.5 moveto
279.0 -50.5 lineto
279.0 -169.0 lineto
160.5 -169.0 lineto
160.5 -50.5 lineto
closepath
fill
newpath
0.0 0.0 0.0 setrgbcolor
1.0 setlinewidth
10.0 setmiterlimit
0 setlinejoin
2 setlinecap
[ ] 0 setdash
newpath
160.5 -50.5 moveto
279.0 -50.5 lineto
279.0 -169.0 lineto
160.5 -169.0 lineto
160.5 -50.5 lineto
closepath
stroke
newpath
0.0 0.0 0.0 setrgbcolor
newpath
195.10938 -99.015625 moveto
195.10938 -89.0 lineto
202.35938 -89.0 lineto
202.35938 -90.171875 lineto
196.4375 -90.171875 lineto
196.4375 -93.25 lineto
201.98438 -93.25 lineto
201.98438 -94.421875 lineto
196.4375 -94.421875 lineto
196.4375 -97.828125 lineto
202.59375 -97.828125 lineto
202.59375 -99.015625 lineto
195.10938 -99.015625 lineto
closepath
204.27539 -90.40625 moveto
204.27539 -89.0 lineto
205.49414 -89.0 lineto
205.49414 -90.40625 lineto
204.27539 -90.40625 lineto
closepath
204.27539 -99.015625 moveto
204.27539 -91.75 lineto
205.49414 -91.75 lineto
205.49414 -99.015625 lineto
204.27539 -99.015625 lineto
closepath
207.37012 -99.015625 moveto
207.37012 -91.75 lineto
208.47949 -91.75 lineto
208.47949 -92.78125 lineto
209.01074 -91.989586 209.78157 -91.59375 210.79199 -91.59375 curveto
211.22949 -91.59375 211.63054 -91.671875 211.99512 -91.828125 curveto
212.3597 -91.984375 212.63313 -92.1901 212.81543 -92.44531 curveto
212.99773 -92.70052 213.12532 -93.00521 213.19824 -93.359375 curveto
213.25032 -93.58854 213.27637 -93.984375 213.27637 -94.546875 curveto
213.27637 -99.015625 lineto
212.04199 -99.015625 lineto
212.04199 -94.59375 lineto
212.04199 -94.09375 211.99512 -93.72135 211.90137 -93.47656 curveto
211.80762 -93.23177 211.63835 -93.03385 211.39355 -92.88281 curveto
211.14876 -92.73177 210.8597 -92.65625 210.52637 -92.65625 curveto
210.00554 -92.65625 209.55501 -92.822914 209.1748 -93.15625 curveto
208.7946 -93.489586 208.60449 -94.11979 208.60449 -95.046875 curveto
208.60449 -99.015625 lineto
207.37012 -99.015625 lineto
closepath
214.9375 -99.625 moveto
216.125 -99.796875 lineto
216.17708 -100.16146 216.3177 -100.43229 216.54688 -100.609375 curveto
216.84895 -100.828125 217.26562 -100.9375 217.79688 -100.9375 curveto
218.3698 -100.9375 218.80989 -100.82552 219.11719 -100.60156 curveto
219.42448 -100.3776 219.63542 -100.05729 219.75 -99.640625 curveto
219.8125 -99.390625 219.83855 -98.864586 219.82812 -98.0625 curveto
219.29688 -98.697914 218.6302 -99.015625 217.82812 -99.015625 curveto
216.82812 -99.015625 216.05469 -98.65625 215.50781 -97.9375 curveto
214.96094 -97.21875 214.6875 -96.354164 214.6875 -95.34375 curveto
214.6875 -94.65625 214.8125 -94.01823 215.0625 -93.42969 curveto
215.3125 -92.84115 215.67448 -92.38802 216.14844 -92.07031 curveto
216.62239 -91.7526 217.1823 -91.59375 217.82812 -91.59375 curveto
218.6823 -91.59375 219.39062 -91.9375 219.95312 -92.625 curveto
219.95312 -91.75 lineto
221.07812 -91.75 lineto
221.07812 -98.03125 lineto
221.07812 -99.166664 220.96355 -99.96875 220.73438 -100.4375 curveto
220.5052 -100.90625 220.14062 -101.27865 219.64062 -101.55469 curveto
219.14062 -101.83073 218.52605 -101.96875 217.79688 -101.96875 curveto
216.9323 -101.96875 216.23438 -101.77344 215.70312 -101.38281 curveto
215.17188 -100.99219 214.91667 -100.40625 214.9375 -99.625 curveto
closepath
215.95312 -95.25 moveto
215.95312 -96.208336 216.14062 -96.90625 216.51562 -97.34375 curveto
216.89062 -97.78125 217.36458 -98.0 217.9375 -98.0 curveto
218.5 -98.0 218.97395 -97.78125 219.35938 -97.34375 curveto
219.7448 -96.90625 219.9375 -96.22396 219.9375 -95.296875 curveto
219.9375 -94.41146 219.73958 -93.74219 219.34375 -93.28906 curveto
218.94792 -92.83594 218.47395 -92.609375 217.92188 -92.609375 curveto
217.3698 -92.609375 216.90364 -92.83073 216.52344 -93.27344 curveto
216.14323 -93.71615 215.95312 -94.375 215.95312 -95.25 curveto
closepath
227.67676 -98.125 moveto
227.22884 -98.510414 226.79395 -98.78385 226.37207 -98.94531 curveto
225.9502 -99.10677 225.49446 -99.1875 225.00488 -99.1875 curveto
224.21321 -99.1875 223.60124 -98.99219 223.16895 -98.60156 curveto
222.73665 -98.21094 222.52051 -97.708336 222.52051 -97.09375 curveto
222.52051 -96.739586 222.60124 -96.416664 222.7627 -96.125 curveto
222.92415 -95.833336 223.1377 -95.59896 223.40332 -95.421875 curveto
223.66895 -95.24479 223.96321 -95.109375 224.28613 -95.015625 curveto
224.52571 -94.953125 224.8903 -94.890625 225.37988 -94.828125 curveto
226.37988 -94.71354 227.11426 -94.572914 227.58301 -94.40625 curveto
227.58301 -94.239586 227.58301 -94.135414 227.58301 -94.09375 curveto
227.58301 -93.583336 227.46843 -93.229164 227.23926 -93.03125 curveto
226.92676 -92.75 226.45801 -92.609375 225.83301 -92.609375 curveto
225.26009 -92.609375 224.83562 -92.71094 224.55957 -92.91406 curveto
224.28352 -93.11719 224.0778 -93.47396 223.94238 -93.984375 curveto
222.73926 -93.828125 lineto
222.84343 -93.30729 223.02312 -92.890625 223.27832 -92.578125 curveto
223.53352 -92.265625 223.89812 -92.02344 224.37207 -91.85156 curveto
224.84602 -91.67969 225.39551 -91.59375 226.02051 -91.59375 curveto
226.63509 -91.59375 227.13509 -91.666664 227.52051 -91.8125 curveto
227.90593 -91.958336 228.18977 -92.140625 228.37207 -92.359375 curveto
228.55437 -92.578125 228.68196 -92.859375 228.75488 -93.203125 curveto
228.79655 -93.41146 228.81738 -93.78646 228.81738 -94.328125 curveto
228.81738 -95.96875 lineto
228.81738 -97.114586 228.84343 -97.83854 228.89551 -98.140625 curveto
228.94759 -98.44271 229.05176 -98.734375 229.20801 -99.015625 curveto
227.92676 -99.015625 lineto
227.80176 -98.75521 227.71843 -98.458336 227.67676 -98.125 curveto
closepath
227.58301 -95.375 moveto
227.13509 -95.552086 226.46321 -95.708336 225.56738 -95.84375 curveto
225.06738 -95.916664 224.71062 -95.9974 224.49707 -96.08594 curveto
224.28352 -96.17448 224.11946 -96.30729 224.00488 -96.484375 curveto
223.8903 -96.66146 223.83301 -96.854164 223.83301 -97.0625 curveto
223.83301 -97.395836 223.95801 -97.671875 224.20801 -97.890625 curveto
224.45801 -98.109375 224.82259 -98.21875 225.30176 -98.21875 curveto
225.78093 -98.21875 226.2028 -98.114586 226.56738 -97.90625 curveto
226.93196 -97.697914 227.2028 -97.41146 227.37988 -97.046875 curveto
227.5153 -96.77604 227.58301 -96.36979 227.58301 -95.828125 curveto
227.58301 -95.375 lineto
closepath
231.86914 -99.015625 moveto
230.72852 -99.015625 lineto
230.72852 -89.0 lineto
231.94727 -89.0 lineto
231.94727 -92.5625 lineto
232.4681 -91.916664 233.13477 -91.59375 233.94727 -91.59375 curveto
234.39519 -91.59375 234.81706 -91.68229 235.21289 -91.859375 curveto
235.60872 -92.03646 235.93684 -92.28906 236.19727 -92.61719 curveto
236.45769 -92.94531 236.66081 -93.33854 236.80664 -93.796875 curveto
236.95247 -94.25521 237.02539 -94.75 237.02539 -95.28125 curveto
237.02539 -96.520836 236.7155 -97.48177 236.0957 -98.16406 curveto
235.4759 -98.84635 234.73894 -99.1875 233.88477 -99.1875 curveto
233.0306 -99.1875 232.35872 -98.828125 231.86914 -98.109375 curveto
231.86914 -99.015625 lineto
closepath
231.85352 -95.328125 moveto
231.85352 -96.203125 231.97331 -96.833336 232.21289 -97.21875 curveto
232.59831 -97.854164 233.11914 -98.171875 233.77539 -98.171875 curveto
234.31706 -98.171875 234.7832 -97.9375 235.17383 -97.46875 curveto
235.56445 -97.0 235.75977 -96.302086 235.75977 -95.375 curveto
235.75977 -94.427086 235.57227 -93.729164 235.19727 -93.28125 curveto
234.82227 -92.833336 234.36914 -92.609375 233.83789 -92.609375 curveto
233.29622 -92.609375 232.83008 -92.84115 232.43945 -93.30469 curveto
232.04883 -93.76823 231.85352 -94.44271 231.85352 -95.328125 curveto
closepath
243.4834 -96.671875 moveto
244.76465 -96.828125 lineto
244.55632 -97.578125 244.18132 -98.15885 243.63965 -98.57031 curveto
243.09798 -98.98177 242.40527 -99.1875 241.56152 -99.1875 curveto
240.49902 -99.1875 239.65788 -98.859375 239.03809 -98.203125 curveto
238.41829 -97.546875 238.1084 -96.63021 238.1084 -95.453125 curveto
238.1084 -94.22396 238.42351 -93.27344 239.05371 -92.60156 curveto
239.68391 -91.92969 240.49902 -91.59375 241.49902 -91.59375 curveto
242.46777 -91.59375 243.25945 -91.92448 243.87402 -92.58594 curveto
244.4886 -93.2474 244.7959 -94.177086 244.7959 -95.375 curveto
244.7959 -95.447914 244.7959 -95.55729 244.7959 -95.703125 curveto
239.37402 -95.703125 lineto
239.4261 -96.49479 239.65266 -97.104164 240.05371 -97.53125 curveto
240.45476 -97.958336 240.96257 -98.171875 241.57715 -98.171875 curveto
242.02507 -98.171875 242.40788 -98.052086 242.72559 -97.8125 curveto
243.04329 -97.572914 243.2959 -97.19271 243.4834 -96.671875 curveto
closepath
239.45215 -94.6875 moveto
243.49902 -94.6875 lineto
243.44695 -94.072914 243.2907 -93.614586 243.03027 -93.3125 curveto
242.64485 -92.84375 242.13965 -92.609375 241.51465 -92.609375 curveto
240.94173 -92.609375 240.46516 -92.796875 240.08496 -93.171875 curveto
239.70476 -93.546875 239.49382 -94.052086 239.45215 -94.6875 curveto
closepath
fill
newpath
0.0 0.0 0.0 setrgbcolor
newpath
194.15625 -114.984375 moveto
194.15625 -104.96875 lineto
200.90625 -104.96875 lineto
200.90625 -106.140625 lineto
195.46875 -106.140625 lineto
195.46875 -109.25 lineto
200.17188 -109.25 lineto
200.17188 -110.4375 lineto
195.46875 -110.4375 lineto
195.46875 -114.984375 lineto
194.15625 -114.984375 lineto
closepath
207.23926 -114.984375 moveto
207.23926 -113.921875 lineto
206.66634 -114.74479 205.89551 -115.15625 204.92676 -115.15625 curveto
204.49968 -115.15625 204.10124 -115.072914 203.73145 -114.90625 curveto
203.36165 -114.739586 203.08562 -114.53125 202.90332 -114.28125 curveto
202.72102 -114.03125 202.59343 -113.729164 202.52051 -113.375 curveto
202.46843 -113.135414 202.44238 -112.75 202.44238 -112.21875 curveto
202.44238 -107.71875 lineto
203.67676 -107.71875 lineto
203.67676 -111.75 lineto
203.67676 -112.395836 203.7028 -112.828125 203.75488 -113.046875 curveto
203.8278 -113.36979 203.98926 -113.625 204.23926 -113.8125 curveto
204.48926 -114.0 204.80176 -114.09375 205.17676 -114.09375 curveto
205.54134 -114.09375 205.88509 -113.9974 206.20801 -113.80469 curveto
206.53093 -113.61198 206.76009 -113.354164 206.89551 -113.03125 curveto
207.03093 -112.708336 207.09863 -112.234375 207.09863 -111.609375 curveto
207.09863 -107.71875 lineto
208.33301 -107.71875 lineto
208.33301 -114.984375 lineto
207.23926 -114.984375 lineto
closepath
210.25977 -114.984375 moveto
210.25977 -107.71875 lineto
211.36914 -107.71875 lineto
211.36914 -108.75 lineto
211.90039 -107.958336 212.67122 -107.5625 213.68164 -107.5625 curveto
214.11914 -107.5625 214.52019 -107.640625 214.88477 -107.796875 curveto
215.24934 -107.953125 215.52278 -108.15885 215.70508 -108.41406 curveto
215.88737 -108.66927 216.01497 -108.97396 216.08789 -109.328125 curveto
216.13997 -109.55729 216.16602 -109.953125 216.16602 -110.515625 curveto
216.16602 -114.984375 lineto
214.93164 -114.984375 lineto
214.93164 -110.5625 lineto
214.93164 -110.0625 214.88477 -109.6901 214.79102 -109.44531 curveto
214.69727 -109.20052 214.528 -109.0026 214.2832 -108.85156 curveto
214.0384 -108.70052 213.74934 -108.625 213.41602 -108.625 curveto
212.89519 -108.625 212.44466 -108.791664 212.06445 -109.125 curveto
211.68425 -109.458336 211.49414 -110.08854 211.49414 -111.015625 curveto
211.49414 -114.984375 lineto
210.25977 -114.984375 lineto
closepath
218.06152 -114.984375 moveto
218.06152 -104.96875 lineto
219.28027 -104.96875 lineto
219.28027 -110.671875 lineto
222.20215 -107.71875 lineto
223.7959 -107.71875 lineto
221.01465 -110.421875 lineto
224.07715 -114.984375 lineto
222.5459 -114.984375 lineto
220.15527 -111.265625 lineto
219.28027 -112.109375 lineto
219.28027 -114.984375 lineto
218.06152 -114.984375 lineto
closepath
227.7334 -113.890625 moveto
227.90527 -114.96875 lineto
227.56152 -115.041664 227.25423 -115.078125 226.9834 -115.078125 curveto
226.53548 -115.078125 226.18913 -115.00781 225.94434 -114.86719 curveto
225.69954 -114.72656 225.52766 -114.541664 225.42871 -114.3125 curveto
225.32976 -114.083336 225.28027 -113.59896 225.28027 -112.859375 curveto
225.28027 -108.6875 lineto
224.37402 -108.6875 lineto
224.37402 -107.71875 lineto
225.28027 -107.71875 lineto
225.28027 -105.921875 lineto
226.49902 -105.1875 lineto
226.49902 -107.71875 lineto
227.7334 -107.71875 lineto
227.7334 -108.6875 lineto
226.49902 -108.6875 lineto
226.49902 -112.921875 lineto
226.49902 -113.27604 226.51985 -113.5026 226.56152 -113.60156 curveto
226.6032 -113.70052 226.67351 -113.78125 226.77246 -113.84375 curveto
226.87141 -113.90625 227.00945 -113.9375 227.18652 -113.9375 curveto
227.33235 -113.9375 227.51465 -113.921875 227.7334 -113.890625 curveto
closepath
228.95117 -106.375 moveto
228.95117 -104.96875 lineto
230.16992 -104.96875 lineto
230.16992 -106.375 lineto
228.95117 -106.375 lineto
closepath
228.95117 -114.984375 moveto
228.95117 -107.71875 lineto
230.16992 -107.71875 lineto
230.16992 -114.984375 lineto
228.95117 -114.984375 lineto
closepath
231.59277 -111.359375 moveto
231.59277 -110.015625 231.96777 -109.015625 232.71777 -108.359375 curveto
233.33235 -107.828125 234.09277 -107.5625 234.99902 -107.5625 curveto
235.9886 -107.5625 236.8011 -107.88802 237.43652 -108.53906 curveto
238.07195 -109.1901 238.38965 -110.09375 238.38965 -111.25 curveto
238.38965 -112.1875 238.24902 -112.92448 237.96777 -113.46094 curveto
237.68652 -113.9974 237.27766 -114.41406 236.74121 -114.71094 curveto
236.20476 -115.00781 235.62402 -115.15625 234.99902 -115.15625 curveto
233.9782 -115.15625 233.15527 -114.828125 232.53027 -114.171875 curveto
231.90527 -113.515625 231.59277 -112.578125 231.59277 -111.359375 curveto
closepath
232.8584 -111.359375 moveto
232.8584 -112.28646 233.06152 -112.98177 233.46777 -113.44531 curveto
233.87402 -113.90885 234.38445 -114.140625 234.99902 -114.140625 curveto
235.6032 -114.140625 236.1084 -113.90625 236.51465 -113.4375 curveto
236.9209 -112.96875 237.12402 -112.260414 237.12402 -111.3125 curveto
237.12402 -110.416664 236.9209 -109.73698 236.51465 -109.27344 curveto
236.1084 -108.8099 235.6032 -108.578125 234.99902 -108.578125 curveto
234.38445 -108.578125 233.87402 -108.80729 233.46777 -109.265625 curveto
233.06152 -109.72396 232.8584 -110.421875 232.8584 -111.359375 curveto
closepath
239.83203 -114.984375 moveto
239.83203 -107.71875 lineto
240.9414 -107.71875 lineto
240.9414 -108.75 lineto
241.47266 -107.958336 242.24348 -107.5625 243.2539 -107.5625 curveto
243.6914 -107.5625 244.09245 -107.640625 244.45703 -107.796875 curveto
244.82161 -107.953125 245.09505 -108.15885 245.27734 -108.41406 curveto
245.45964 -108.66927 245.58723 -108.97396 245.66016 -109.328125 curveto
245.71223 -109.55729 245.73828 -109.953125 245.73828 -110.515625 curveto
245.73828 -114.984375 lineto
244.5039 -114.984375 lineto
244.5039 -110.5625 lineto
244.5039 -110.0625 244.45703 -109.6901 244.36328 -109.44531 curveto
244.26953 -109.20052 244.10027 -109.0026 243.85547 -108.85156 curveto
243.61067 -108.70052 243.32161 -108.625 242.98828 -108.625 curveto
242.46745 -108.625 242.01692 -108.791664 241.63672 -109.125 curveto
241.25652 -109.458336 241.0664 -110.08854 241.0664 -111.015625 curveto
241.0664 -114.984375 lineto
239.83203 -114.984375 lineto
closepath
fill
newpath
0.0 0.0 0.0 setrgbcolor
newpath
207.82812 -120.9375 moveto
207.82812 -122.109375 lineto
202.45312 -122.109375 lineto
205.85938 -125.75 lineto
202.45312 -129.76562 lineto
208.10938 -129.76562 lineto
208.10938 -130.95312 lineto
201.01562 -130.95312 lineto
201.01562 -129.57812 lineto
204.28125 -125.75 lineto
201.01562 -122.265625 lineto
201.01562 -120.9375 lineto
207.82812 -120.9375 lineto
closepath
211.93555 -133.90625 moveto
211.24805 -133.04167 210.66992 -132.03645 210.20117 -130.89062 curveto
209.73242 -129.7448 209.49805 -128.5573 209.49805 -127.328125 curveto
209.49805 -126.24479 209.67513 -125.203125 210.0293 -124.203125 curveto
210.43555 -123.046875 211.07097 -121.90104 211.93555 -120.765625 curveto
212.81055 -120.765625 lineto
212.25847 -121.71354 211.89388 -122.390625 211.7168 -122.796875 curveto
211.43555 -123.421875 211.2168 -124.078125 211.06055 -124.765625 curveto
210.86263 -125.609375 210.76367 -126.46354 210.76367 -127.328125 curveto
210.76367 -129.52605 211.44597 -131.71875 212.81055 -133.90625 curveto
211.93555 -133.90625 lineto
closepath
215.58203 -130.95312 moveto
213.36328 -123.6875 lineto
214.6289 -123.6875 lineto
215.78516 -127.890625 lineto
216.22266 -129.4375 lineto
216.23308 -129.36458 216.35808 -128.86458 216.59766 -127.9375 curveto
217.7539 -123.6875 lineto
219.0039 -123.6875 lineto
220.09766 -127.90625 lineto
220.45703 -129.29688 lineto
220.8789 -127.890625 lineto
222.1289 -123.6875 lineto
223.3164 -123.6875 lineto
221.05078 -130.95312 lineto
219.76953 -130.95312 lineto
218.61328 -126.609375 lineto
218.33203 -125.375 lineto
216.86328 -130.95312 lineto
215.58203 -130.95312 lineto
closepath
224.67676 -130.95312 moveto
224.67676 -129.54688 lineto
226.06738 -129.54688 lineto
226.06738 -130.95312 lineto
226.06738 -131.46355 225.97624 -131.87761 225.79395 -132.19531 curveto
225.61165 -132.51302 225.32259 -132.76042 224.92676 -132.9375 curveto
224.58301 -132.40625 lineto
224.84343 -132.29167 225.03613 -132.125 225.16113 -131.90625 curveto
225.28613 -131.6875 225.35384 -131.3698 225.36426 -130.95312 curveto
224.67676 -130.95312 lineto
closepath
229.3789 -130.95312 moveto
228.23828 -130.95312 lineto
228.23828 -120.9375 lineto
229.45703 -120.9375 lineto
229.45703 -124.5 lineto
229.97786 -123.854164 230.64453 -123.53125 231.45703 -123.53125 curveto
231.90495 -123.53125 232.32683 -123.61979 232.72266 -123.796875 curveto
233.11848 -123.97396 233.44661 -124.22656 233.70703 -124.55469 curveto
233.96745 -124.88281 234.17058 -125.27604 234.3164 -125.734375 curveto
234.46223 -126.19271 234.53516 -126.6875 234.53516 -127.21875 curveto
234.53516 -128.45833 234.22527 -129.41927 233.60547 -130.10156 curveto
232.98567 -130.78386 232.2487 -131.125 231.39453 -131.125 curveto
230.54036 -131.125 229.86848 -130.76562 229.3789 -130.04688 curveto
229.3789 -130.95312 lineto
closepath
229.36328 -127.265625 moveto
229.36328 -128.14062 229.48308 -128.77083 229.72266 -129.15625 curveto
230.10808 -129.79167 230.6289 -130.10938 231.28516 -130.10938 curveto
231.82683 -130.10938 232.29297 -129.875 232.6836 -129.40625 curveto
233.07422 -128.9375 233.26953 -128.23958 233.26953 -127.3125 curveto
233.26953 -126.364586 233.08203 -125.666664 232.70703 -125.21875 curveto
232.33203 -124.770836 231.8789 -124.546875 231.34766 -124.546875 curveto
230.80598 -124.546875 230.33984 -124.77865 229.94922 -125.24219 curveto
229.5586 -125.70573 229.36328 -126.38021 229.36328 -127.265625 curveto
closepath
236.83691 -133.90625 moveto
235.94629 -133.90625 lineto
237.31087 -131.71875 237.99316 -129.52605 237.99316 -127.328125 curveto
237.99316 -126.47396 237.89421 -125.625 237.69629 -124.78125 curveto
237.54004 -124.09375 237.32649 -123.4375 237.05566 -122.8125 curveto
236.87859 -122.40625 236.50879 -121.72396 235.94629 -120.765625 curveto
236.83691 -120.765625 lineto
237.69109 -121.90104 238.32129 -123.046875 238.72754 -124.203125 curveto
239.08171 -125.203125 239.25879 -126.24479 239.25879 -127.328125 curveto
239.25879 -128.5573 239.0218 -129.7448 238.54785 -130.89062 curveto
238.0739 -132.03645 237.50359 -133.04167 236.83691 -133.90625 curveto
closepath
fill
newpath
grestore
gsave
newpath
0.0 -0.0 moveto
620.0 -0.0 lineto
620.0 -220.0 lineto
0.0 -220.0 lineto
0.0 -0.0 lineto
closepath
clip
newpath
1.0 setlinewidth
10.0 setmiterlimit
0 setlinejoin
2 setlinecap
[ ] 0 setdash
grestore
gsave
newpath
400.0 -50.0 moveto
400.0 -170.0 lineto
520.0 -170.0 lineto
520.0 -50.0 lineto
closepath
clip
newpath
0.0 0.0 0.0 setrgbcolor
1.0 1.0 1.0 setrgbcolor
newpath
400.5 -50.5 moveto
519.0 -50.5 lineto
519.0 -169.0 lineto
400.5 -169.0 lineto
400.5 -50.5 lineto
closepath
fill
newpath
0.0 0.0 0.0 setrgbcolor
1.0 setlinewidth
10.0 setmiterlimit
0 setlinejoin
2 setlinecap
[ ] 0 setdash
newpath
400.5 -50.5 moveto
519.0 -50.5 lineto
519.0 -169.0 lineto
400.5 -169.0 lineto
400.5 -50.5 lineto
closepath
stroke
newpath
0.0 0.0 0.0 setrgbcolor
newpath
431.98438 -114.984375 moveto
435.82812 -104.96875 lineto
437.25 -104.96875 lineto
441.35938 -114.984375 lineto
439.84375 -114.984375 lineto
438.67188 -111.953125 lineto
434.48438 -111.953125 lineto
433.39062 -114.984375 lineto
431.98438 -114.984375 lineto
closepath
434.875 -110.875 moveto
438.26562 -110.875 lineto
437.21875 -108.09375 lineto
436.90625 -107.25 436.67188 -106.55729 436.51562 -106.015625 curveto
436.39062 -106.66146 436.20834 -107.296875 435.96875 -107.921875 curveto
434.875 -110.875 lineto
closepath
447.0254 -114.984375 moveto
447.0254 -113.921875 lineto
446.45248 -114.74479 445.68164 -115.15625 444.7129 -115.15625 curveto
444.2858 -115.15625 443.88736 -115.072914 443.51758 -114.90625 curveto
443.1478 -114.739586 442.87173 -114.53125 442.68945 -114.28125 curveto
442.50717 -114.03125 442.37955 -113.729164 442.30664 -113.375 curveto
442.25455 -113.135414 442.22852 -112.75 442.22852 -112.21875 curveto
442.22852 -107.71875 lineto
443.4629 -107.71875 lineto
443.4629 -111.75 lineto
443.4629 -112.395836 443.48892 -112.828125 443.54102 -113.046875 curveto
443.61392 -113.36979 443.7754 -113.625 444.0254 -113.8125 curveto
444.2754 -114.0 444.5879 -114.09375 444.9629 -114.09375 curveto
445.32748 -114.09375 445.67123 -113.9974 445.99414 -113.80469 curveto
446.31705 -113.61198 446.54623 -113.354164 446.68164 -113.03125 curveto
446.81705 -112.708336 446.88477 -112.234375 446.88477 -111.609375 curveto
446.88477 -107.71875 lineto
448.11914 -107.71875 lineto
448.11914 -114.984375 lineto
447.0254 -114.984375 lineto
closepath
449.56152 -112.8125 moveto
450.76465 -112.625 lineto
450.83755 -113.114586 451.03027 -113.489586 451.34277 -113.75 curveto
451.65527 -114.010414 452.09277 -114.140625 452.65527 -114.140625 curveto
453.21777 -114.140625 453.63705 -114.02604 453.9131 -113.796875 curveto
454.18912 -113.56771 454.32715 -113.296875 454.32715 -112.984375 curveto
454.32715 -112.703125 454.20215 -112.484375 453.95215 -112.328125 curveto
453.7855 -112.21354 453.3688 -112.072914 452.70215 -111.90625 curveto
451.7959 -111.677086 451.1683 -111.479164 450.81934 -111.3125 curveto
450.47037 -111.145836 450.20737 -110.916664 450.03027 -110.625 curveto
449.85318 -110.333336 449.76465 -110.010414 449.76465 -109.65625 curveto
449.76465 -109.333336 449.83755 -109.03385 449.9834 -108.75781 curveto
450.12924 -108.48177 450.33237 -108.25 450.59277 -108.0625 curveto
450.78027 -107.927086 451.0381 -107.8099 451.3662 -107.71094 curveto
451.69434 -107.61198 452.05112 -107.5625 452.43652 -107.5625 curveto
452.99902 -107.5625 453.49643 -107.64323 453.9287 -107.80469 curveto
454.361 -107.96615 454.6813 -108.1875 454.88965 -108.46875 curveto
455.098 -108.75 455.23862 -109.125 455.31152 -109.59375 curveto
454.1084 -109.765625 lineto
454.0563 -109.390625 453.89746 -109.09896 453.63184 -108.890625 curveto
453.3662 -108.68229 452.9938 -108.578125 452.51465 -108.578125 curveto
451.95215 -108.578125 451.55112 -108.66927 451.31152 -108.85156 curveto
451.07193 -109.03385 450.95215 -109.25521 450.95215 -109.515625 curveto
450.95215 -109.671875 450.99902 -109.8125 451.09277 -109.9375 curveto
451.19693 -110.072914 451.3584 -110.18229 451.57715 -110.265625 curveto
451.69174 -110.30729 452.05112 -110.41146 452.65527 -110.578125 curveto
453.53027 -110.81771 454.13965 -111.010414 454.4834 -111.15625 curveto
454.82715 -111.302086 455.09537 -111.515625 455.2881 -111.796875 curveto
455.4808 -112.078125 455.57715 -112.427086 455.57715 -112.84375 curveto
455.57715 -113.260414 455.45996 -113.64844 455.2256 -114.00781 curveto
454.9912 -114.36719 454.64746 -114.64844 454.19434 -114.85156 curveto
453.7412 -115.05469 453.22818 -115.15625 452.65527 -115.15625 curveto
451.71777 -115.15625 451.00162 -114.958336 450.50684 -114.5625 curveto
450.01205 -114.166664 449.69693 -113.583336 449.56152 -112.8125 curveto
closepath
456.82715 -115.59375 moveto
458.01465 -115.765625 lineto
458.06674 -116.13021 458.20737 -116.40104 458.43652 -116.578125 curveto
458.73862 -116.796875 459.15527 -116.90625 459.68652 -116.90625 curveto
460.25943 -116.90625 460.69955 -116.79427 461.00684 -116.57031 curveto
461.31412 -116.34635 461.52505 -116.02604 461.63965 -115.609375 curveto
461.70215 -115.359375 461.72818 -114.833336 461.71777 -114.03125 curveto
461.18652 -114.666664 460.51987 -114.984375 459.71777 -114.984375 curveto
458.71777 -114.984375 457.94434 -114.625 457.39746 -113.90625 curveto
456.8506 -113.1875 456.57715 -112.322914 456.57715 -111.3125 curveto
456.57715 -110.625 456.70215 -109.98698 456.95215 -109.39844 curveto
457.20215 -108.8099 457.56412 -108.35677 458.0381 -108.03906 curveto
458.51205 -107.72135 459.07193 -107.5625 459.71777 -107.5625 curveto
460.57193 -107.5625 461.28027 -107.90625 461.84277 -108.59375 curveto
461.84277 -107.71875 lineto
462.96777 -107.71875 lineto
462.96777 -114.0 lineto
462.96777 -115.135414 462.85318 -115.9375 462.62402 -116.40625 curveto
462.39487 -116.875 462.03027 -117.2474 461.53027 -117.52344 curveto
461.03027 -117.79948 460.41568 -117.9375 459.68652 -117.9375 curveto
458.82193 -117.9375 458.12402 -117.74219 457.59277 -117.35156 curveto
457.06152 -116.96094 456.8063 -116.375 456.82715 -115.59375 curveto
closepath
457.84277 -111.21875 moveto
457.84277 -112.177086 458.03027 -112.875 458.40527 -113.3125 curveto
458.78027 -113.75 459.25424 -113.96875 459.82715 -113.96875 curveto
460.38965 -113.96875 460.86362 -113.75 461.24902 -113.3125 curveto
461.63443 -112.875 461.82715 -112.19271 461.82715 -111.265625 curveto
461.82715 -110.38021 461.62924 -109.71094 461.2334 -109.25781 curveto
460.83755 -108.80469 460.36362 -108.578125 459.81152 -108.578125 curveto
459.25943 -108.578125 458.7933 -108.79948 458.4131 -109.24219 curveto
458.03287 -109.6849 457.84277 -110.34375 457.84277 -111.21875 curveto
closepath
469.5664 -114.09375 moveto
469.1185 -114.479164 468.6836 -114.7526 468.26172 -114.91406 curveto
467.83984 -115.07552 467.38412 -115.15625 466.89453 -115.15625 curveto
466.10287 -115.15625 465.49088 -114.96094 465.0586 -114.57031 curveto
464.6263 -114.17969 464.41016 -113.677086 464.41016 -113.0625 curveto
464.41016 -112.708336 464.49088 -112.385414 464.65234 -112.09375 curveto
464.8138 -111.802086 465.02734 -111.56771 465.29297 -111.390625 curveto
465.5586 -111.21354 465.85287 -111.078125 466.17578 -110.984375 curveto
466.41537 -110.921875 466.77994 -110.859375 467.26953 -110.796875 curveto
468.26953 -110.68229 469.0039 -110.541664 469.47266 -110.375 curveto
469.47266 -110.208336 469.47266 -110.104164 469.47266 -110.0625 curveto
469.47266 -109.552086 469.35806 -109.197914 469.1289 -109.0 curveto
468.8164 -108.71875 468.34766 -108.578125 467.72266 -108.578125 curveto
467.14975 -108.578125 466.72525 -108.67969 466.44922 -108.88281 curveto
466.1732 -109.08594 465.96744 -109.44271 465.83203 -109.953125 curveto
464.6289 -109.796875 lineto
464.73306 -109.27604 464.91275 -108.859375 465.16797 -108.546875 curveto
465.4232 -108.234375 465.78775 -107.99219 466.26172 -107.82031 curveto
466.7357 -107.64844 467.28516 -107.5625 467.91016 -107.5625 curveto
468.52475 -107.5625 469.02475 -107.635414 469.41016 -107.78125 curveto
469.79556 -107.927086 470.07944 -108.109375 470.26172 -108.328125 curveto
470.444 -108.546875 470.57162 -108.828125 470.64453 -109.171875 curveto
470.6862 -109.38021 470.70703 -109.75521 470.70703 -110.296875 curveto
470.70703 -111.9375 lineto
470.70703 -113.083336 470.73306 -113.80729 470.78516 -114.109375 curveto
470.83725 -114.41146 470.9414 -114.703125 471.09766 -114.984375 curveto
469.8164 -114.984375 lineto
469.6914 -114.72396 469.60806 -114.427086 469.5664 -114.09375 curveto
closepath
469.47266 -111.34375 moveto
469.02475 -111.520836 468.35287 -111.677086 467.45703 -111.8125 curveto
466.95703 -111.885414 466.60025 -111.96615 466.38672 -112.05469 curveto
466.1732 -112.14323 466.00912 -112.27604 465.89453 -112.453125 curveto
465.77994 -112.63021 465.72266 -112.822914 465.72266 -113.03125 curveto
465.72266 -113.364586 465.84766 -113.640625 466.09766 -113.859375 curveto
466.34766 -114.078125 466.71225 -114.1875 467.1914 -114.1875 curveto
467.67056 -114.1875 468.09244 -114.083336 468.45703 -113.875 curveto
468.82162 -113.666664 469.09244 -113.38021 469.26953 -113.015625 curveto
469.40494 -112.74479 469.47266 -112.33854 469.47266 -111.796875 curveto
469.47266 -111.34375 lineto
closepath
473.7588 -114.984375 moveto
472.61816 -114.984375 lineto
472.61816 -104.96875 lineto
473.8369 -104.96875 lineto
473.8369 -108.53125 lineto
474.35776 -107.885414 475.0244 -107.5625 475.8369 -107.5625 curveto
476.28482 -107.5625 476.7067 -107.65104 477.10254 -107.828125 curveto
477.49838 -108.00521 477.8265 -108.25781 478.0869 -108.58594 curveto
478.34732 -108.91406 478.55045 -109.30729 478.6963 -109.765625 curveto
478.84213 -110.22396 478.91504 -110.71875 478.91504 -111.25 curveto
478.91504 -112.489586 478.60513 -113.45052 477.98535 -114.13281 curveto
477.36557 -114.8151 476.62857 -115.15625 475.7744 -115.15625 curveto
474.92026 -115.15625 474.24838 -114.796875 473.7588 -114.078125 curveto
473.7588 -114.984375 lineto
closepath
473.74316 -111.296875 moveto
473.74316 -112.171875 473.86295 -112.802086 474.10254 -113.1875 curveto
474.48795 -113.822914 475.0088 -114.140625 475.66504 -114.140625 curveto
476.2067 -114.140625 476.67285 -113.90625 477.06348 -113.4375 curveto
477.4541 -112.96875 477.6494 -112.270836 477.6494 -111.34375 curveto
477.6494 -110.395836 477.4619 -109.697914 477.0869 -109.25 curveto
476.7119 -108.802086 476.2588 -108.578125 475.72754 -108.578125 curveto
475.18588 -108.578125 474.71973 -108.8099 474.3291 -109.27344 curveto
473.93848 -109.73698 473.74316 -110.41146 473.74316 -111.296875 curveto
closepath
485.37305 -112.640625 moveto
486.6543 -112.796875 lineto
486.44595 -113.546875 486.07095 -114.1276 485.5293 -114.53906 curveto
484.98764 -114.95052 484.29492 -115.15625 483.45117 -115.15625 curveto
482.38867 -115.15625 481.54752 -114.828125 480.92773 -114.171875 curveto
480.30795 -113.515625 479.99805 -112.59896 479.99805 -111.421875 curveto
479.99805 -110.19271 480.31314 -109.24219 480.94336 -108.57031 curveto
481.57358 -107.89844 482.38867 -107.5625 483.38867 -107.5625 curveto
484.35742 -107.5625 485.14908 -107.89323 485.76367 -108.55469 curveto
486.37827 -109.21615 486.68555 -110.145836 486.68555 -111.34375 curveto
486.68555 -111.416664 486.68555 -111.52604 486.68555 -111.671875 curveto
481.26367 -111.671875 lineto
481.31577 -112.46354 481.54233 -113.072914 481.94336 -113.5 curveto
482.3444 -113.927086 482.8522 -114.140625 483.4668 -114.140625 curveto
483.9147 -114.140625 484.29752 -114.020836 484.61523 -113.78125 curveto
484.93295 -113.541664 485.18555 -113.16146 485.37305 -112.640625 curveto
closepath
481.3418 -110.65625 moveto
485.38867 -110.65625 lineto
485.33658 -110.041664 485.18033 -109.583336 484.91992 -109.28125 curveto
484.53452 -108.8125 484.0293 -108.578125 483.4043 -108.578125 curveto
482.8314 -108.578125 482.35483 -108.765625 481.9746 -109.140625 curveto
481.5944 -109.515625 481.38345 -110.020836 481.3418 -110.65625 curveto
closepath
fill
newpath
grestore
gsave
newpath
0.0 -0.0 moveto
620.0 -0.0 lineto
620.0 -220.0 lineto
0.0 -220.0 lineto
0.0 -0.0 lineto
closepath
clip
newpath
1.0 setlinewidth
10.0 setmiterlimit
0 setlinejoin
2 setlinecap
[ ] 0 setdash
grestore
gsave
newpath
60.0 -50.0 moveto
60.0 -110.0 lineto
120.0 -110.0 lineto
120.0 -50.0 lineto
closepath
clip
newpath
0.0 0.0 0.0 setrgbcolor
0.0 0.0 0.0 setrgbcolor
1.0 setlinewidth
10.0 setmiterlimit
0 setlinejoin
2 setlinecap
[ ] 0 setdash
newpath
70.5 -60.5 moveto
100.5 -90.5 lineto
stroke
newpath
grestore
gsave
newpath
0.0 -0.0 moveto
620.0 -0.0 lineto
620.0 -220.0 lineto
0.0 -220.0 lineto
0.0 -0.0 lineto
closepath
clip
newpath
1.0 setlinewidth
10.0 setmiterlimit
0 setlinejoin
2 setlinecap
[ ] 0 setdash
grestore
gsave
newpath
60.0 -80.0 moveto
60.0 -180.0 lineto
120.0 -180.0 lineto
120.0 -80.0 lineto
closepath
clip
newpath
0.0 0.0 0.0 setrgbcolor
0.0 0.0 0.0 setrgbcolor
1.0 setlinewidth
10.0 setmiterlimit
0 setlinejoin
2 setlinecap
[ ] 0 setdash
newpath
70.5 -160.5 moveto
100.5 -90.5 lineto
stroke
newpath
grestore
gsave
newpath
0.0 -0.0 moveto
620.0 -0.0 lineto
620.0 -220.0 lineto
0.0 -220.0 lineto
0.0 -0.0 lineto
closepath
clip
newpath
1.0 setlinewidth
10.0 setmiterlimit
0 setlinejoin
2 setlinecap
[ ] 0 setdash
grestore
gsave
newpath
20.0 -80.0 moveto
20.0 -120.0 lineto
120.0 -120.0 lineto
120.0 -80.0 lineto
closepath
clip
newpath
0.0 0.0 0.0 setrgbcolor
0.0 0.0 0.0 setrgbcolor
1.0 setlinewidth
10.0 setmiterlimit
0 setlinejoin
2 setlinecap
[ ] 0 setdash
newpath
70.5 -90.5 moveto
100.5 -90.5 lineto
stroke
newpath
0.0 0.0 0.0 setrgbcolor
newpath
24.011719 -103.96875 moveto
24.011719 -93.953125 lineto
31.261719 -93.953125 lineto
31.261719 -95.125 lineto
25.339844 -95.125 lineto
25.339844 -98.203125 lineto
30.886719 -98.203125 lineto
30.886719 -99.375 lineto
25.339844 -99.375 lineto
25.339844 -102.78125 lineto
31.496094 -102.78125 lineto
31.496094 -103.96875 lineto
24.011719 -103.96875 lineto
closepath
33.177734 -95.359375 moveto
33.177734 -93.953125 lineto
34.396484 -93.953125 lineto
34.396484 -95.359375 lineto
33.177734 -95.359375 lineto
closepath
33.177734 -103.96875 moveto
33.177734 -96.703125 lineto
34.396484 -96.703125 lineto
34.396484 -103.96875 lineto
33.177734 -103.96875 lineto
closepath
36.27246 -103.96875 moveto
36.27246 -96.703125 lineto
37.381836 -96.703125 lineto
37.381836 -97.734375 lineto
37.913086 -96.94271 38.683918 -96.546875 39.694336 -96.546875 curveto
40.131836 -96.546875 40.53288 -96.625 40.89746 -96.78125 curveto
41.262043 -96.9375 41.53548 -97.14323 41.717773 -97.39844 curveto
41.900066 -97.65365 42.027668 -97.958336 42.100586 -98.3125 curveto
42.152668 -98.541664 42.17871 -98.9375 42.17871 -99.5 curveto
42.17871 -103.96875 lineto
40.944336 -103.96875 lineto
40.944336 -99.546875 lineto
40.944336 -99.046875 40.89746 -98.67448 40.80371 -98.42969 curveto
40.70996 -98.1849 40.54069 -97.98698 40.2959 -97.83594 curveto
40.051105 -97.6849 39.762043 -97.609375 39.42871 -97.609375 curveto
38.90788 -97.609375 38.457355 -97.77604 38.07715 -98.109375 curveto
37.69694 -98.44271 37.506836 -99.072914 37.506836 -100.0 curveto
37.506836 -103.96875 lineto
36.27246 -103.96875 lineto
closepath
43.839844 -104.578125 moveto
45.027344 -104.75 lineto
45.079426 -105.114586 45.22005 -105.385414 45.44922 -105.5625 curveto
45.7513 -105.78125 46.16797 -105.890625 46.69922 -105.890625 curveto
47.272137 -105.890625 47.71224 -105.77865 48.01953 -105.55469 curveto
48.326824 -105.33073 48.53776 -105.010414 48.652344 -104.59375 curveto
48.714844 -104.34375 48.740887 -103.81771 48.73047 -103.015625 curveto
48.19922 -103.65104 47.53255 -103.96875 46.73047 -103.96875 curveto
45.73047 -103.96875 44.95703 -103.609375 44.410156 -102.890625 curveto
43.86328 -102.171875 43.589844 -101.30729 43.589844 -100.296875 curveto
43.589844 -99.609375 43.714844 -98.97135 43.964844 -98.38281 curveto
44.214844 -97.79427 44.576824 -97.34115 45.05078 -97.02344 curveto
45.52474 -96.70573 46.084637 -96.546875 46.73047 -96.546875 curveto
47.584637 -96.546875 48.29297 -96.890625 48.85547 -97.578125 curveto
48.85547 -96.703125 lineto
49.98047 -96.703125 lineto
49.98047 -102.984375 lineto
49.98047 -104.11979 49.865887 -104.921875 49.63672 -105.390625 curveto
49.40755 -105.859375 49.04297 -106.23177 48.54297 -106.50781 curveto
48.04297 -106.78385 47.428387 -106.921875 46.69922 -106.921875 curveto
45.834637 -106.921875 45.13672 -106.72656 44.60547 -106.33594 curveto
44.07422 -105.94531 43.81901 -105.359375 43.839844 -104.578125 curveto
closepath
44.85547 -100.203125 moveto
44.85547 -101.16146 45.04297 -101.859375 45.41797 -102.296875 curveto
45.79297 -102.734375 46.266926 -102.953125 46.839844 -102.953125 curveto
47.402344 -102.953125 47.8763 -102.734375 48.26172 -102.296875 curveto
48.647137 -101.859375 48.839844 -101.177086 48.839844 -100.25 curveto
48.839844 -99.364586 48.641926 -98.69531 48.246094 -98.24219 curveto
47.85026 -97.78906 47.3763 -97.5625 46.82422 -97.5625 curveto
46.272137 -97.5625 45.80599 -97.78385 45.42578 -98.22656 curveto
45.045574 -98.66927 44.85547 -99.328125 44.85547 -100.203125 curveto
closepath
56.5791 -103.078125 moveto
56.131184 -103.46354 55.69629 -103.73698 55.274414 -103.89844 curveto
54.85254 -104.0599 54.39681 -104.140625 53.907227 -104.140625 curveto
53.11556 -104.140625 52.503582 -103.94531 52.07129 -103.55469 curveto
51.638996 -103.16406 51.42285 -102.66146 51.42285 -102.046875 curveto
51.42285 -101.69271 51.503582 -101.36979 51.66504 -101.078125 curveto
51.826496 -100.78646 52.04004 -100.552086 52.305664 -100.375 curveto
52.57129 -100.197914 52.86556 -100.0625 53.188477 -99.96875 curveto
53.42806 -99.90625 53.792645 -99.84375 54.282227 -99.78125 curveto
55.282227 -99.666664 56.0166 -99.52604 56.48535 -99.359375 curveto
56.48535 -99.19271 56.48535 -99.08854 56.48535 -99.046875 curveto
56.48535 -98.53646 56.37077 -98.18229 56.1416 -97.984375 curveto
55.8291 -97.703125 55.36035 -97.5625 54.73535 -97.5625 curveto
54.162434 -97.5625 53.737957 -97.66406 53.461914 -97.86719 curveto
53.18587 -98.07031 52.980145 -98.427086 52.844727 -98.9375 curveto
51.6416 -98.78125 lineto
51.74577 -98.260414 51.925457 -97.84375 52.180664 -97.53125 curveto
52.43587 -97.21875 52.800457 -96.97656 53.274414 -96.80469 curveto
53.74837 -96.63281 54.29785 -96.546875 54.92285 -96.546875 curveto
55.537434 -96.546875 56.037434 -96.61979 56.42285 -96.765625 curveto
56.80827 -96.91146 57.09212 -97.09375 57.274414 -97.3125 curveto
57.456707 -97.53125 57.58431 -97.8125 57.657227 -98.15625 curveto
57.698895 -98.364586 57.719727 -98.739586 57.719727 -99.28125 curveto
57.719727 -100.921875 lineto
57.719727 -102.06771 57.74577 -102.791664 57.79785 -103.09375 curveto
57.849934 -103.395836 57.9541 -103.6875 58.11035 -103.96875 curveto
56.8291 -103.96875 lineto
56.7041 -103.708336 56.62077 -103.41146 56.5791 -103.078125 curveto
closepath
56.48535 -100.328125 moveto
56.037434 -100.50521 55.36556 -100.66146 54.469727 -100.796875 curveto
53.969727 -100.86979 53.612957 -100.95052 53.399414 -101.03906 curveto
53.18587 -101.1276 53.02181 -101.260414 52.907227 -101.4375 curveto
52.792645 -101.614586 52.73535 -101.80729 52.73535 -102.015625 curveto
52.73535 -102.34896 52.86035 -102.625 53.11035 -102.84375 curveto
53.36035 -103.0625 53.724934 -103.171875 54.2041 -103.171875 curveto
54.68327 -103.171875 55.105145 -103.06771 55.469727 -102.859375 curveto
55.83431 -102.65104 56.105145 -102.364586 56.282227 -102.0 curveto
56.417645 -101.729164 56.48535 -101.322914 56.48535 -100.78125 curveto
56.48535 -100.328125 lineto
closepath
60.771484 -103.96875 moveto
59.63086 -103.96875 lineto
59.63086 -93.953125 lineto
60.84961 -93.953125 lineto
60.84961 -97.515625 lineto
61.37044 -96.86979 62.03711 -96.546875 62.84961 -96.546875 curveto
63.297527 -96.546875 63.719402 -96.635414 64.115234 -96.8125 curveto
64.51107 -96.989586 64.839195 -97.24219 65.09961 -97.57031 curveto
65.36002 -97.89844 65.56315 -98.291664 65.708984 -98.75 curveto
65.85482 -99.208336 65.927734 -99.703125 65.927734 -100.234375 curveto
65.927734 -101.47396 65.617836 -102.4349 64.99805 -103.11719 curveto
64.37826 -103.79948 63.641277 -104.140625 62.78711 -104.140625 curveto
61.93294 -104.140625 61.261066 -103.78125 60.771484 -103.0625 curveto
60.771484 -103.96875 lineto
closepath
60.75586 -100.28125 moveto
60.75586 -101.15625 60.875652 -101.78646 61.115234 -102.171875 curveto
61.500652 -102.80729 62.021484 -103.125 62.677734 -103.125 curveto
63.219402 -103.125 63.685547 -102.890625 64.07617 -102.421875 curveto
64.4668 -101.953125 64.66211 -101.25521 64.66211 -100.328125 curveto
64.66211 -99.38021 64.47461 -98.68229 64.09961 -98.234375 curveto
63.72461 -97.78646 63.271484 -97.5625 62.740234 -97.5625 curveto
62.198566 -97.5625 61.73242 -97.79427 61.341797 -98.25781 curveto
60.95117 -98.72135 60.75586 -99.395836 60.75586 -100.28125 curveto
closepath
72.38574 -101.625 moveto
73.66699 -101.78125 lineto
73.45866 -102.53125 73.08366 -103.11198 72.54199 -103.52344 curveto
72.00033 -103.9349 71.30762 -104.140625 70.46387 -104.140625 curveto
69.40137 -104.140625 68.56022 -103.8125 67.94043 -103.15625 curveto
67.32064 -102.5 67.01074 -101.583336 67.01074 -100.40625 curveto
67.01074 -99.177086 67.32584 -98.22656 67.956055 -97.55469 curveto
68.586266 -96.88281 69.40137 -96.546875 70.40137 -96.546875 curveto
71.37012 -96.546875 72.16178 -96.8776 72.77637 -97.53906 curveto
73.39095 -98.20052 73.69824 -99.13021 73.69824 -100.328125 curveto
73.69824 -100.40104 73.69824 -100.510414 73.69824 -100.65625 curveto
68.27637 -100.65625 lineto
68.32845 -101.447914 68.555016 -102.05729 68.956055 -102.484375 curveto
69.35709 -102.91146 69.86491 -103.125 70.47949 -103.125 curveto
70.92741 -103.125 71.31022 -103.00521 71.62793 -102.765625 curveto
71.94564 -102.52604 72.19824 -102.145836 72.38574 -101.625 curveto
closepath
68.35449 -99.640625 moveto
72.40137 -99.640625 lineto
72.34928 -99.02604 72.19303 -98.56771 71.93262 -98.265625 curveto
71.5472 -97.796875 71.04199 -97.5625 70.41699 -97.5625 curveto
69.84408 -97.5625 69.367516 -97.75 68.987305 -98.125 curveto
68.60709 -98.5 68.39616 -99.00521 68.35449 -99.640625 curveto
closepath
75.203125 -103.96875 moveto
75.203125 -96.703125 lineto
76.3125 -96.703125 lineto
76.3125 -97.734375 lineto
76.84375 -96.94271 77.614586 -96.546875 78.625 -96.546875 curveto
79.0625 -96.546875 79.46354 -96.625 79.828125 -96.78125 curveto
80.19271 -96.9375 80.46615 -97.14323 80.64844 -97.39844 curveto
80.83073 -97.65365 80.958336 -97.958336 81.03125 -98.3125 curveto
81.083336 -98.541664 81.109375 -98.9375 81.109375 -99.5 curveto
81.109375 -103.96875 lineto
79.875 -103.96875 lineto
79.875 -99.546875 lineto
79.875 -99.046875 79.828125 -98.67448 79.734375 -98.42969 curveto
79.640625 -98.1849 79.47135 -97.98698 79.22656 -97.83594 curveto
78.98177 -97.6849 78.69271 -97.609375 78.359375 -97.609375 curveto
77.83854 -97.609375 77.38802 -97.77604 77.00781 -98.109375 curveto
76.6276 -98.44271 76.4375 -99.072914 76.4375 -100.0 curveto
76.4375 -103.96875 lineto
75.203125 -103.96875 lineto
closepath
fill
newpath
grestore
gsave
newpath
0.0 -0.0 moveto
620.0 -0.0 lineto
620.0 -220.0 lineto
0.0 -220.0 lineto
0.0 -0.0 lineto
closepath
clip
newpath
1.0 setlinewidth
10.0 setmiterlimit
0 setlinejoin
2 setlinecap
[ ] 0 setdash
grestore
gsave
newpath
60.0 -20.0 moveto
60.0 -110.0 lineto
120.0 -110.0 lineto
120.0 -20.0 lineto
closepath
clip
newpath
0.0 0.0 0.0 setrgbcolor
0.0 0.0 0.0 setrgbcolor
1.0 setlinewidth
10.0 setmiterlimit
0 setlinejoin
2 setlinecap
[ ] 0 setdash
newpath
70.5 -30.5 moveto
100.5 -90.5 lineto
stroke
newpath
grestore
gsave
newpath
0.0 -0.0 moveto
620.0 -0.0 lineto
620.0 -220.0 lineto
0.0 -220.0 lineto
0.0 -0.0 lineto
closepath
clip
newpath
1.0 setlinewidth
10.0 setmiterlimit
0 setlinejoin
2 setlinecap
[ ] 0 setdash
grestore
gsave
newpath
60.0 -80.0 moveto
60.0 -150.0 lineto
120.0 -150.0 lineto
120.0 -80.0 lineto
closepath
clip
newpath
0.0 0.0 0.0 setrgbcolor
0.0 0.0 0.0 setrgbcolor
1.0 setlinewidth
10.0 setmiterlimit
0 setlinejoin
2 setlinecap
[ ] 0 setdash
newpath
70.5 -130.5 moveto
100.5 -90.5 lineto
stroke
newpath
grestore
gsave
newpath
0.0 -0.0 moveto
620.0 -0.0 lineto
620.0 -220.0 lineto
0.0 -220.0 lineto
0.0 -0.0 lineto
closepath
clip
newpath
1.0 setlinewidth
10.0 setmiterlimit
0 setlinejoin
2 setlinecap
[ ] 0 setdash
grestore
gsave
newpath
90.0 -120.0 moveto
90.0 -160.0 lineto
180.0 -160.0 lineto
180.0 -120.0 lineto
closepath
clip
newpath
0.0 0.0 0.0 setrgbcolor
0.0 0.0 0.0 setrgbcolor
2.0 setlinewidth
10.0 setmiterlimit
0 setlinejoin
2 setlinecap
[ ] 0 setdash
newpath
100.5 -130.5 moveto
159.5 -130.5 lineto
stroke
newpath
0.0 0.0 0.0 setrgbcolor
2.0 setlinewidth
10.0 setmiterlimit
0 setlinejoin
2 setlinecap
[ ] 0 setdash
newpath
148.74167 -137.0 moveto
160.0 -130.5 lineto
148.74167 -124.0 lineto
stroke
newpath
0.0 0.0 0.0 setrgbcolor
newpath
120.03125 -143.96875 moveto
120.03125 -133.95312 lineto
123.78125 -133.95312 lineto
124.552086 -133.95312 125.16927 -134.05469 125.63281 -134.25781 curveto
126.09635 -134.46094 126.458336 -134.77083 126.71875 -135.1875 curveto
126.979164 -135.60417 127.109375 -136.04688 127.109375 -136.51562 curveto
127.109375 -136.9427 126.99219 -137.34375 126.75781 -137.71875 curveto
126.52344 -138.09375 126.171875 -138.40105 125.703125 -138.64062 curveto
126.30729 -138.8177 126.77344 -139.1198 127.10156 -139.54688 curveto
127.42969 -139.97395 127.59375 -140.47917 127.59375 -141.0625 curveto
127.59375 -141.53125 127.49479 -141.96875 127.296875 -142.375 curveto
127.09896 -142.78125 126.854164 -143.09375 126.5625 -143.3125 curveto
126.270836 -143.53125 125.90365 -143.69531 125.46094 -143.80469 curveto
125.01823 -143.91406 124.479164 -143.96875 123.84375 -143.96875 curveto
120.03125 -143.96875 lineto
closepath
121.359375 -138.15625 moveto
123.515625 -138.15625 lineto
124.109375 -138.15625 124.53125 -138.1198 124.78125 -138.04688 curveto
125.125 -137.9427 125.38021 -137.77344 125.546875 -137.53906 curveto
125.71354 -137.30469 125.796875 -137.01562 125.796875 -136.67188 curveto
125.796875 -136.33855 125.71875 -136.04427 125.5625 -135.78906 curveto
125.40625 -135.53386 125.17969 -135.35938 124.88281 -135.26562 curveto
124.58594 -135.17188 124.078125 -135.125 123.359375 -135.125 curveto
121.359375 -135.125 lineto
121.359375 -138.15625 lineto
closepath
121.359375 -142.78125 moveto
123.84375 -142.78125 lineto
124.270836 -142.78125 124.572914 -142.76562 124.75 -142.73438 curveto
125.052086 -142.6823 125.30729 -142.59114 125.515625 -142.46094 curveto
125.72396 -142.33073 125.89323 -142.14583 126.02344 -141.90625 curveto
126.15365 -141.66667 126.21875 -141.38542 126.21875 -141.0625 curveto
126.21875 -140.6875 126.1224 -140.36198 125.92969 -140.08594 curveto
125.73698 -139.80989 125.47135 -139.61719 125.13281 -139.50781 curveto
124.79427 -139.39844 124.30729 -139.34375 123.671875 -139.34375 curveto
121.359375 -139.34375 lineto
121.359375 -142.78125 lineto
closepath
129.27539 -135.35938 moveto
129.27539 -133.95312 lineto
130.49414 -133.95312 lineto
130.49414 -135.35938 lineto
129.27539 -135.35938 lineto
closepath
129.27539 -143.96875 moveto
129.27539 -136.70312 lineto
130.49414 -136.70312 lineto
130.49414 -143.96875 lineto
129.27539 -143.96875 lineto
closepath
137.10449 -143.07812 moveto
136.65657 -143.46355 136.22168 -143.73698 135.7998 -143.89844 curveto
135.37793 -144.05989 134.9222 -144.14062 134.43262 -144.14062 curveto
133.64095 -144.14062 133.02898 -143.94531 132.59668 -143.55469 curveto
132.16438 -143.16406 131.94824 -142.66145 131.94824 -142.04688 curveto
131.94824 -141.6927 132.02898 -141.3698 132.19043 -141.07812 curveto
132.35188 -140.78645 132.56543 -140.55208 132.83105 -140.375 curveto
133.09668 -140.19792 133.39095 -140.0625 133.71387 -139.96875 curveto
133.95345 -139.90625 134.31804 -139.84375 134.80762 -139.78125 curveto
135.80762 -139.66667 136.54199 -139.52605 137.01074 -139.35938 curveto
137.01074 -139.1927 137.01074 -139.08855 137.01074 -139.04688 curveto
137.01074 -138.53645 136.89616 -138.1823 136.66699 -137.98438 curveto
136.35449 -137.70312 135.88574 -137.5625 135.26074 -137.5625 curveto
134.68782 -137.5625 134.26335 -137.66406 133.9873 -137.86719 curveto
133.71126 -138.07031 133.50554 -138.42708 133.37012 -138.9375 curveto
132.16699 -138.78125 lineto
132.27116 -138.26042 132.45085 -137.84375 132.70605 -137.53125 curveto
132.96126 -137.21875 133.32585 -136.97656 133.7998 -136.80469 curveto
134.27376 -136.63281 134.82324 -136.54688 135.44824 -136.54688 curveto
136.06282 -136.54688 136.56282 -136.6198 136.94824 -136.76562 curveto
137.33366 -136.91145 137.61751 -137.09375 137.7998 -137.3125 curveto
137.9821 -137.53125 138.1097 -137.8125 138.18262 -138.15625 curveto
138.22429 -138.36458 138.24512 -138.73958 138.24512 -139.28125 curveto
138.24512 -140.92188 lineto
138.24512 -142.0677 138.27116 -142.79167 138.32324 -143.09375 curveto
138.37532 -143.39583 138.47949 -143.6875 138.63574 -143.96875 curveto
137.35449 -143.96875 lineto
137.22949 -143.70833 137.14616 -143.41145 137.10449 -143.07812 curveto
closepath
137.01074 -140.32812 moveto
136.56282 -140.5052 135.89095 -140.66145 134.99512 -140.79688 curveto
134.49512 -140.8698 134.13835 -140.95052 133.9248 -141.03906 curveto
133.71126 -141.12761 133.5472 -141.26042 133.43262 -141.4375 curveto
133.31804 -141.61458 133.26074 -141.8073 133.26074 -142.01562 curveto
133.26074 -142.34895 133.38574 -142.625 133.63574 -142.84375 curveto
133.88574 -143.0625 134.25032 -143.17188 134.72949 -143.17188 curveto
135.20866 -143.17188 135.63054 -143.0677 135.99512 -142.85938 curveto
136.3597 -142.65105 136.63054 -142.36458 136.80762 -142.0 curveto
136.94304 -141.72917 137.01074 -141.32292 137.01074 -140.78125 curveto
137.01074 -140.32812 lineto
closepath
139.67188 -141.79688 moveto
140.875 -141.60938 lineto
140.94792 -142.09895 141.14062 -142.47395 141.45312 -142.73438 curveto
141.76562 -142.9948 142.20312 -143.125 142.76562 -143.125 curveto
143.32812 -143.125 143.74739 -143.01042 144.02344 -142.78125 curveto
144.29948 -142.55208 144.4375 -142.28125 144.4375 -141.96875 curveto
144.4375 -141.6875 144.3125 -141.46875 144.0625 -141.3125 curveto
143.89583 -141.19792 143.47917 -141.0573 142.8125 -140.89062 curveto
141.90625 -140.66145 141.27864 -140.46355 140.92969 -140.29688 curveto
140.58073 -140.1302 140.3177 -139.90105 140.14062 -139.60938 curveto
139.96355 -139.3177 139.875 -138.9948 139.875 -138.64062 curveto
139.875 -138.3177 139.94792 -138.01823 140.09375 -137.74219 curveto
140.23958 -137.46614 140.4427 -137.23438 140.70312 -137.04688 curveto
140.89062 -136.91145 141.14844 -136.79427 141.47656 -136.69531 curveto
141.80469 -136.59636 142.16145 -136.54688 142.54688 -136.54688 curveto
143.10938 -136.54688 143.60677 -136.62761 144.03906 -136.78906 curveto
144.47136 -136.95052 144.79167 -137.17188 145.0 -137.45312 curveto
145.20833 -137.73438 145.34895 -138.10938 145.42188 -138.57812 curveto
144.21875 -138.75 lineto
144.16667 -138.375 144.00781 -138.08333 143.74219 -137.875 curveto
143.47656 -137.66667 143.10417 -137.5625 142.625 -137.5625 curveto
142.0625 -137.5625 141.66145 -137.65364 141.42188 -137.83594 curveto
141.1823 -138.01823 141.0625 -138.23958 141.0625 -138.5 curveto
141.0625 -138.65625 141.10938 -138.79688 141.20312 -138.92188 curveto
141.3073 -139.0573 141.46875 -139.16667 141.6875 -139.25 curveto
141.80208 -139.29167 142.16145 -139.39583 142.76562 -139.5625 curveto
143.64062 -139.80208 144.25 -139.9948 144.59375 -140.14062 curveto
144.9375 -140.28645 145.20573 -140.5 145.39844 -140.78125 curveto
145.59114 -141.0625 145.6875 -141.41145 145.6875 -141.82812 curveto
145.6875 -142.2448 145.57031 -142.63281 145.33594 -142.99219 curveto
145.10156 -143.35156 144.75781 -143.63281 144.30469 -143.83594 curveto
143.85156 -144.03906 143.33855 -144.14062 142.76562 -144.14062 curveto
141.82812 -144.14062 141.11198 -143.9427 140.61719 -143.54688 curveto
140.12239 -143.15105 139.8073 -142.5677 139.67188 -141.79688 curveto
closepath
fill
newpath
grestore
gsave
newpath
0.0 -0.0 moveto
620.0 -0.0 lineto
620.0 -220.0 lineto
0.0 -220.0 lineto
0.0 -0.0 lineto
closepath
clip
newpath
1.0 setlinewidth
10.0 setmiterlimit
0 setlinejoin
2 setlinecap
[ ] 0 setdash
1.0 setlinewidth
10.0 setmiterlimit
0 setlinejoin
2 setlinecap
[ ] 0 setdash
grestore
gsave
newpath
90.0 -80.0 moveto
90.0 -110.0 lineto
180.0 -110.0 lineto
180.0 -80.0 lineto
closepath
clip
newpath
0.0 0.0 0.0 setrgbcolor
0.0 0.0 0.0 setrgbcolor
1.0 setlinewidth
10.0 setmiterlimit
0 setlinejoin
2 setlinecap
[ ] 0 setdash
newpath
100.5 -90.5 moveto
159.5 -90.5 lineto
stroke
newpath
0.0 0.0 0.0 setrgbcolor
1.0 setlinewidth
10.0 setmiterlimit
0 setlinejoin
2 setlinecap
[ ] 0 setdash
newpath
148.74167 -97.0 moveto
160.0 -90.5 lineto
148.74167 -84.0 lineto
stroke
newpath
grestore
gsave
newpath
0.0 -0.0 moveto
620.0 -0.0 lineto
620.0 -220.0 lineto
0.0 -220.0 lineto
0.0 -0.0 lineto
closepath
clip
newpath
1.0 setlinewidth
10.0 setmiterlimit
0 setlinejoin
2 setlinecap
[ ] 0 setdash
grestore
gsave
newpath
540.0 -100.0 moveto
540.0 -160.0 lineto
600.0 -160.0 lineto
600.0 -100.0 lineto
closepath
clip
newpath
0.0 0.0 0.0 setrgbcolor
0.0 0.0 0.0 setrgbcolor
1.0 setlinewidth
10.0 setmiterlimit
0 setlinejoin
2 setlinecap
[ ] 0 setdash
newpath
550.5 -110.5 moveto
579.7929 -139.7929 lineto
stroke
newpath
0.0 0.0 0.0 setrgbcolor
1.0 setlinewidth
10.0 setmiterlimit
0 setlinejoin
2 setlinecap
[ ] 0 setdash
newpath
567.5894 -136.7818 moveto
580.1464 -140.14645 lineto
576.7818 -127.58941 lineto
stroke
newpath
grestore
gsave
newpath
0.0 -0.0 moveto
620.0 -0.0 lineto
620.0 -220.0 lineto
0.0 -220.0 lineto
0.0 -0.0 lineto
closepath
clip
newpath
1.0 setlinewidth
10.0 setmiterlimit
0 setlinejoin
2 setlinecap
[ ] 0 setdash
grestore
gsave
newpath
540.0 -100.0 moveto
540.0 -200.0 lineto
600.0 -200.0 lineto
600.0 -100.0 lineto
closepath
clip
newpath
0.0 0.0 0.0 setrgbcolor
0.0 0.0 0.0 setrgbcolor
1.0 setlinewidth
10.0 setmiterlimit
0 setlinejoin
2 setlinecap
[ ] 0 setdash
newpath
550.5 -110.5 moveto
580.1061 -179.58086 lineto
stroke
newpath
0.0 0.0 0.0 setrgbcolor
1.0 setlinewidth
10.0 setmiterlimit
0 setlinejoin
2 setlinecap
[ ] 0 setdash
newpath
569.89374 -172.25287 moveto
580.30304 -180.04042 lineto
581.8426 -167.13191 lineto
stroke
newpath
grestore
gsave
newpath
0.0 -0.0 moveto
620.0 -0.0 lineto
620.0 -220.0 lineto
0.0 -220.0 lineto
0.0 -0.0 lineto
closepath
clip
newpath
1.0 setlinewidth
10.0 setmiterlimit
0 setlinejoin
2 setlinecap
[ ] 0 setdash
grestore
gsave
newpath
540.0 -100.0 moveto
540.0 -130.0 lineto
600.0 -130.0 lineto
600.0 -100.0 lineto
closepath
clip
newpath
0.0 0.0 0.0 setrgbcolor
0.0 0.0 0.0 setrgbcolor
1.0 setlinewidth
10.0 setmiterlimit
0 setlinejoin
2 setlinecap
[ ] 0 setdash
newpath
550.5 -110.5 moveto
579.5 -110.5 lineto
stroke
newpath
0.0 0.0 0.0 setrgbcolor
1.0 setlinewidth
10.0 setmiterlimit
0 setlinejoin
2 setlinecap
[ ] 0 setdash
newpath
568.7417 -117.0 moveto
580.0 -110.5 lineto
568.7417 -104.0 lineto
stroke
newpath
grestore
gsave
newpath
0.0 -0.0 moveto
620.0 -0.0 lineto
620.0 -220.0 lineto
0.0 -220.0 lineto
0.0 -0.0 lineto
closepath
clip
newpath
1.0 setlinewidth
10.0 setmiterlimit
0 setlinejoin
2 setlinecap
[ ] 0 setdash
grestore
gsave
newpath
540.0 -60.0 moveto
540.0 -130.0 lineto
600.0 -130.0 lineto
600.0 -60.0 lineto
closepath
clip
newpath
0.0 0.0 0.0 setrgbcolor
0.0 0.0 0.0 setrgbcolor
1.0 setlinewidth
10.0 setmiterlimit
0 setlinejoin
2 setlinecap
[ ] 0 setdash
newpath
550.5 -110.5 moveto
579.9 -71.3 lineto
stroke
newpath
0.0 0.0 0.0 setrgbcolor
1.0 setlinewidth
10.0 setmiterlimit
0 setlinejoin
2 setlinecap
[ ] 0 setdash
newpath
578.645 -83.80666 moveto
580.2 -70.9 lineto
568.245 -76.00666 lineto
stroke
newpath
grestore
gsave
newpath
0.0 -0.0 moveto
620.0 -0.0 lineto
620.0 -220.0 lineto
0.0 -220.0 lineto
0.0 -0.0 lineto
closepath
clip
newpath
1.0 setlinewidth
10.0 setmiterlimit
0 setlinejoin
2 setlinecap
[ ] 0 setdash
grestore
gsave
newpath
540.0 -30.0 moveto
540.0 -130.0 lineto
600.0 -130.0 lineto
600.0 -30.0 lineto
closepath
clip
newpath
0.0 0.0 0.0 setrgbcolor
0.0 0.0 0.0 setrgbcolor
1.0 setlinewidth
10.0 setmiterlimit
0 setlinejoin
2 setlinecap
[ ] 0 setdash
newpath
550.5 -110.5 moveto
580.1061 -41.419144 lineto
stroke
newpath
0.0 0.0 0.0 setrgbcolor
1.0 setlinewidth
10.0 setmiterlimit
0 setlinejoin
2 setlinecap
[ ] 0 setdash
newpath
581.8426 -53.868088 moveto
580.30304 -40.95957 lineto
569.89374 -48.747135 lineto
stroke
newpath
grestore
gsave
newpath
0.0 -0.0 moveto
620.0 -0.0 lineto
620.0 -220.0 lineto
0.0 -220.0 lineto
0.0 -0.0 lineto
closepath
clip
newpath
1.0 setlinewidth
10.0 setmiterlimit
0 setlinejoin
2 setlinecap
[ ] 0 setdash
grestore
gsave
newpath
510.0 -90.0 moveto
510.0 -130.0 lineto
570.0 -130.0 lineto
570.0 -90.0 lineto
closepath
clip
newpath
0.0 0.0 0.0 setrgbcolor
0.0 0.0 0.0 setrgbcolor
1.0 setlinewidth
10.0 setmiterlimit
0 setlinejoin
2 setlinecap
[ ] 0 setdash
newpath
520.5 -110.5 moveto
550.5 -110.5 lineto
stroke
newpath
0.0 0.0 0.0 setrgbcolor
grestore
grestore
showpage

%%EOF